{
   "activities": {
      "main": null,
      "names": []
   },
   "certificate": {
      "android_debug": false,
      "certificate_sha1": "fffebf52b8979d377affe671f9539cab10361bbd",
      "common_name": "MIUI",
      "country_name": "CN",
      "has_android_certificate": true,
      "locality_name": "Beijing",
      "organization_name": "Xiaomi",
      "organization_unit_name": "MIUI",
      "state_or_province_name": "Beijing"
   },
   "files": {
      "names": [
         "res/mipmap-hdpi-v4/ic_launcher_download.png",
         "res/mipmap-mdpi-v4/ic_launcher_download.png",
         "res/mipmap-xhdpi-v4/ic_launcher_download.png",
         "res/mipmap-xxhdpi-v4/ic_launcher_download.png",
         "res/mipmap-xxxhdpi-v4/ic_launcher_download.png",
         "resources.arsc",
         "AndroidManifest.xml",
         "com/xiaomi/xmsf/push/service/IHttpService.aidl",
         "com/xiaomi/xmsf/push/service/IStatService.aidl",
         "mistats_version",
         "res/layout-ldrtl/notification.xml",
         "res/layout/notification.xml",
         "META-INF/MANIFEST.MF",
         "META-INF/CERT.SF",
         "META-INF/CERT.RSA"
      ]
   },
   "general": {
      "apk_name": "Downloads",
      "file_size": 422246,
      "minimun_sdk_version": "26",
      "package_name": "com.android.providers.downloads",
      "sha256": "572fefe027fb72e5fe10e80fcf9e15b45b185d063cc0a01e8b8b82bd453bbd2e",
      "version_code": "80726100"
   },
   "gplaydata": {
      "exists": false
   },
   "methods": [],
   "permissions": {
      "aosp": [
         "android.permission.RECEIVE_BOOT_COMPLETED",
         "android.permission.ACCESS_DOWNLOAD_MANAGER",
         "android.permission.ACCESS_CACHE_FILESYSTEM",
         "android.permission.SEND_DOWNLOAD_COMPLETED_INTENTS",
         "android.permission.ACCESS_NETWORK_STATE",
         "android.permission.INTERNET",
         "android.permission.WRITE_EXTERNAL_STORAGE",
         "android.permission.ACCESS_ALL_DOWNLOADS",
         "android.permission.UPDATE_DEVICE_STATS",
         "android.permission.CONNECTIVITY_INTERNAL",
         "android.permission.MODIFY_NETWORK_ACCOUNTING",
         "android.permission.CLEAR_APP_CACHE",
         "android.permission.WAKE_LOCK",
         "android.permission.UPDATE_APP_OPS_STATS"
      ],
      "declared": [
         "android.permission.ACCESS_DOWNLOAD_MANAGER",
         "android.permission.ACCESS_DOWNLOAD_MANAGER_ADVANCED",
         "android.permission.SEND_DOWNLOAD_COMPLETED_INTENTS",
         "android.permission.DOWNLOAD_CACHE_NON_PURGEABLE",
         "android.permission.DOWNLOAD_WITHOUT_NOTIFICATION",
         "android.permission.ACCESS_ALL_DOWNLOADS"
      ],
      "names": [
         "android.permission.RECEIVE_BOOT_COMPLETED",
         "android.permission.ACCESS_DOWNLOAD_MANAGER",
         "android.permission.ACCESS_CACHE_FILESYSTEM",
         "android.permission.SEND_DOWNLOAD_COMPLETED_INTENTS",
         "android.permission.ACCESS_NETWORK_STATE",
         "android.permission.INTERNET",
         "android.permission.WRITE_EXTERNAL_STORAGE",
         "android.permission.ACCESS_ALL_DOWNLOADS",
         "android.permission.UPDATE_DEVICE_STATS",
         "android.permission.CONNECTIVITY_INTERNAL",
         "android.permission.MODIFY_NETWORK_ACCOUNTING",
         "android.permission.CLEAR_APP_CACHE",
         "android.permission.WAKE_LOCK",
         "android.permission.UPDATE_APP_OPS_STATS"
      ],
      "third_party": []
   },
   "providers": {
      "names": [
         "com.android.providers.downloads.DownloadProvider",
         "com.android.providers.downloads.DownloadStorageProvider"
      ]
   },
   "receivers": {
      "names": [
         {
            "intent_filters": {
               "action": [
                  "android.intent.action.BOOT_COMPLETED",
                  "android.intent.action.UID_REMOVED",
                  "android.intent.action.MEDIA_MOUNTED",
                  "miui.intent.action.MIUI_REGION_CHANGED"
               ]
            },
            "name": "com.android.providers.downloads.DownloadReceiver"
         }
      ]
   },
   "services": {
      "names": [
         {
            "intent_filters": {},
            "name": "com.android.providers.downloads.DownloadJobService"
         },
         {
            "intent_filters": {},
            "name": "com.android.providers.downloads.DownloadIdleService"
         }
      ]
   },
   "specials": {
      "good_developer": false
   },
   "strings": []
}