{
   "activities": {
      "main": "com.facebook.lite.MainActivity",
      "names": [
         {
            "intent_filters": {
               "action": [
                  "android.intent.action.MAIN",
                  "com.facebook.lite.intent.action.SEND_AS_MESSAGE",
                  "android.intent.action.VIEW"
               ],
               "category": [
                  "android.intent.category.LAUNCHER",
                  "android.intent.category.DEFAULT",
                  "android.intent.category.BROWSABLE"
               ]
            },
            "name": "com.facebook.lite.MainActivity"
         },
         {
            "intent_filters": {},
            "name": "com.facebook.lite.media.AlbumGalleryActivity"
         },
         {
            "intent_filters": {},
            "name": "com.facebook.lite.photo.PreviewActivity"
         },
         {
            "intent_filters": {},
            "name": "com.facebook.lite.storagemanager.ManageStorageActivity"
         },
         {
            "intent_filters": {},
            "name": "com.facebook.lite.bugreporter.screencast.ScreencastActivity"
         },
         {
            "intent_filters": {},
            "name": "com.facebook.appupdate.WaitForInitActivity"
         }
      ]
   },
   "certificate": {
      "android_debug": false,
      "certificate_sha1": "",
      "common_name": "",
      "country_name": "",
      "has_android_certificate": false,
      "locality_name": "",
      "organization_name": "",
      "organization_unit_name": "",
      "state_or_province_name": ""
   },
   "files": {
      "names": [
         "AndroidManifest.xml",
         "assets/app_modules.json",
         "assets/java.com.facebook.lite.fizz.wrapper/metadata.txt",
         "assets/java.com.facebook.video.heroplayer.service/metadata.txt",
         "assets/lib/libs.xzs",
         "assets/lib/metadata.txt",
         "assets/secondary-program-dex-jars/metadata.txt",
         "assets/secondary-program-dex-jars/secondary-1.dex.jar.xzs.tmp~.meta",
         "assets/secondary-program-dex-jars/secondary.dex.jar.xzs",
         "build-data.properties",
         "classes.dex",
         "jsr305_annotations/Jsr305_annotations.gwt.xml",
         "lib/armeabi-v7a/libfb_stacktracer.so",
         "lib/armeabi-v7a/libfb_xzdecoder_static.so",
         "r/-.png",
         "r/0.glsl",
         "r/1.png",
         "r/2.xml",
         "r/3.xml",
         "r/4.xml",
         "r/5.png",
         "r/6.xml",
         "r/7.png",
         "r/8.png",
         "r/9.xml",
         "r/_.xml",
         "r/a.png",
         "r/b.glsl",
         "r/b0.xml",
         "r/b1.png",
         "r/b2.png",
         "r/b3.xml",
         "r/b4.png",
         "r/b5.png",
         "r/b6.png",
         "r/b7.xml",
         "r/ba.png",
         "r/bb.9.png",
         "r/bc.png",
         "r/bd.xml",
         "r/be.png",
         "r/bf.png",
         "r/bg.png",
         "r/bh.xml",
         "r/bi.png",
         "r/bj.png",
         "r/bk.xml",
         "r/bl.9.png",
         "r/bm.png",
         "r/bn.png",
         "r/bo.xml",
         "r/bp.png",
         "r/bq.xml",
         "r/br.png",
         "r/bs.png",
         "r/bt.xml",
         "r/bu.png",
         "r/bv.png",
         "r/bw.",
         "r/bx.png",
         "r/by.xml",
         "r/bz.jpg",
         "r/c.png",
         "r/d.png",
         "r/e.png",
         "r/f.png",
         "r/g.png",
         "r/h.xml",
         "r/i.png",
         "r/j.xml",
         "r/k.png",
         "r/l.png",
         "r/m.png",
         "r/n.glsl",
         "r/o.png",
         "r/p.png",
         "r/q.xml",
         "r/r.xml",
         "r/s.xml",
         "r/t.png",
         "r/u.xml",
         "r/v.xml",
         "r/w.png",
         "r/x.png",
         "r/y.png",
         "r/z.xml",
         "resources.arsc",
         "META-INF/FACEBOOK.SF",
         "META-INF/FACEBOOK.RSA",
         "META-INF/MANIFEST.MF"
      ]
   },
   "general": {
      "apk_name": "Lite",
      "file_size": 1418758,
      "minimun_sdk_version": "14",
      "package_name": "com.facebook.lite",
      "sha256": "5e792e2d97d4462854d3db84a9733974c45fc4ad6faf82516cc3e29cc7de2779",
      "version_code": "126047147"
   },
   "gplaydata": {
      "category": "Social",
      "content_rating": "0",
      "developer_name": "Facebook",
      "downloads": "500000000+",
      "exists": true,
      "name": "FacebookLite",
      "rating_count": "9,059,116",
      "score": "4.3"
   },
   "methods": [
      "<init>",
      "a",
      "<init>",
      "a",
      "a",
      "<clinit>",
      "a",
      "a",
      "a",
      "<init>",
      "a",
      "<init>",
      "a",
      "b",
      "<init>",
      "a",
      "a",
      "<init>",
      "a",
      "<init>",
      "a",
      "a",
      "a",
      "<clinit>",
      "<init>",
      "a",
      "a",
      "a",
      "a",
      "a",
      "findClass",
      "loadClass",
      "a",
      "a",
      "<init>",
      "a",
      "a",
      "toString",
      "<init>",
      "a",
      "a",
      "toString",
      "<init>",
      "<init>",
      "a",
      "b",
      "a",
      "a",
      "a",
      "b",
      "<init>",
      "a",
      "<init>",
      "b",
      "<init>",
      "<init>",
      "a",
      "b",
      "toString",
      "<init>",
      "a",
      "b",
      "close",
      "<init>",
      "a",
      "b",
      "<init>",
      "<init>",
      "<init>",
      "b",
      "c",
      "close",
      "<init>",
      "b",
      "c",
      "close",
      "<init>",
      "a",
      "b",
      "close",
      "<init>",
      "available",
      "close",
      "read",
      "read",
      "a",
      "a",
      "a",
      "a",
      "a",
      "b",
      "b",
      "getSystemService",
      "onConfigurationChanged",
      "onCreate",
      "onLowMemory",
      "onTerminate",
      "<clinit>",
      "<init>",
      "b",
      "attachBaseContext",
      "getSystemService",
      "onConfigurationChanged",
      "onCreate",
      "onLowMemory",
      "onTerminate",
      "<init>",
      "a",
      "<clinit>",
      "b",
      "<init>",
      "close",
      "<clinit>",
      "a",
      "a",
      "b",
      "<init>",
      "<init>",
      "<clinit>",
      "a",
      "b",
      "<clinit>",
      "<clinit>",
      "<clinit>",
      "<init>",
      "fallocateIfSupported",
      "getSupportedAbis",
      "a",
      "a",
      "a",
      "a",
      "a",
      "b",
      "<init>",
      "a",
      "b",
      "<init>",
      "a",
      "a",
      "b",
      "c",
      "close",
      "<init>",
      "a",
      "<init>",
      "a",
      "a",
      "toString",
      "<init>",
      "compareTo",
      "<init>",
      "a",
      "b",
      "<init>",
      "close",
      "a",
      "a",
      "b",
      "c",
      "d",
      "<init>",
      "<clinit>",
      "<init>",
      "a",
      "a",
      "a",
      "a",
      "b",
      "d",
      "<init>",
      "a",
      "<init>",
      "<init>",
      "run",
      "<init>",
      "<init>",
      "close",
      "<clinit>",
      "<init>",
      "a",
      "b",
      "decompressStream",
      "end",
      "initializeLibrary",
      "initializeState",
      "close",
      "read",
      "read"
   ],
   "permissions": {
      "aosp": [
         "android.permission.ACCESS_COARSE_LOCATION",
         "android.permission.ACCESS_FINE_LOCATION",
         "android.permission.ACCESS_NETWORK_STATE",
         "android.permission.ACCESS_WIFI_STATE",
         "android.permission.BATTERY_STATS",
         "android.permission.BROADCAST_STICKY",
         "android.permission.CALL_PHONE",
         "android.permission.CAMERA",
         "android.permission.CHANGE_NETWORK_STATE",
         "android.permission.CHANGE_WIFI_STATE",
         "android.permission.GET_TASKS",
         "android.permission.INTERNET",
         "android.permission.READ_CALENDAR",
         "android.permission.READ_CALL_LOG",
         "android.permission.READ_CONTACTS",
         "android.permission.GET_ACCOUNTS",
         "android.permission.AUTHENTICATE_ACCOUNTS",
         "android.permission.MANAGE_ACCOUNTS",
         "android.permission.READ_PHONE_STATE",
         "android.permission.READ_PROFILE",
         "android.permission.RECEIVE_BOOT_COMPLETED",
         "android.permission.READ_SMS",
         "android.permission.RECORD_AUDIO",
         "android.permission.SYSTEM_ALERT_WINDOW",
         "android.permission.VIBRATE",
         "android.permission.WAKE_LOCK",
         "android.permission.WRITE_CALENDAR",
         "android.permission.WRITE_CONTACTS",
         "android.permission.WRITE_EXTERNAL_STORAGE",
         "com.android.launcher.permission.INSTALL_SHORTCUT",
         "com.android.launcher.permission.UNINSTALL_SHORTCUT",
         "android.permission.DOWNLOAD_WITHOUT_NOTIFICATION",
         "android.permission.REQUEST_INSTALL_PACKAGES"
      ],
      "declared": [
         "com.facebook.lite.permission.C2D_MESSAGE",
         "com.facebook.receiver.permission.ACCESS",
         "com.facebook.permission.prod.FB_APP_COMMUNICATION"
      ],
      "names": [
         "android.permission.ACCESS_COARSE_LOCATION",
         "android.permission.ACCESS_FINE_LOCATION",
         "android.permission.ACCESS_NETWORK_STATE",
         "android.permission.ACCESS_WIFI_STATE",
         "android.permission.BATTERY_STATS",
         "android.permission.BROADCAST_STICKY",
         "android.permission.CALL_PHONE",
         "android.permission.CAMERA",
         "android.permission.CHANGE_NETWORK_STATE",
         "android.permission.CHANGE_WIFI_STATE",
         "android.permission.GET_TASKS",
         "android.permission.INTERNET",
         "android.permission.READ_CALENDAR",
         "android.permission.READ_CALL_LOG",
         "android.permission.READ_CONTACTS",
         "android.permission.GET_ACCOUNTS",
         "android.permission.AUTHENTICATE_ACCOUNTS",
         "android.permission.MANAGE_ACCOUNTS",
         "android.permission.READ_PHONE_STATE",
         "android.permission.READ_PROFILE",
         "android.permission.RECEIVE_BOOT_COMPLETED",
         "android.permission.READ_SMS",
         "android.permission.RECORD_AUDIO",
         "android.permission.SYSTEM_ALERT_WINDOW",
         "android.permission.VIBRATE",
         "android.permission.WAKE_LOCK",
         "android.permission.WRITE_CALENDAR",
         "android.permission.WRITE_CONTACTS",
         "android.permission.WRITE_EXTERNAL_STORAGE",
         "com.android.launcher.permission.INSTALL_SHORTCUT",
         "com.android.launcher.permission.UNINSTALL_SHORTCUT",
         "com.facebook.lite.permission.C2D_MESSAGE",
         "com.facebook.receiver.permission.ACCESS",
         "com.google.android.c2dm.permission.RECEIVE",
         "com.facebook.katana.provider.ACCESS",
         "com.facebook.orca.provider.ACCESS",
         "com.facebook.mlite.provider.ACCESS",
         "com.facebook.wakizashi.provider.ACCESS",
         "com.facebook.permission.prod.FB_APP_COMMUNICATION",
         "com.sec.android.provider.badge.permission.WRITE",
         "com.sec.android.provider.badge.permission.READ",
         "com.htc.launcher.permission.READ_SETTINGS",
         "com.htc.launcher.permission.UPDATE_SHORTCUT",
         "com.sonyericsson.home.permission.BROADCAST_BADGE",
         "com.sonymobile.home.permission.PROVIDER_INSERT_BADGE",
         "com.huawei.android.launcher.permission.CHANGE_BADGE",
         "com.huawei.android.launcher.permission.READ_SETTINGS",
         "com.huawei.android.launcher.permission.WRITE_SETTINGS",
         "com.oppo.launcher.permission.READ_SETTINGS",
         "com.oppo.launcher.permission.WRITE_SETTINGS",
         "android.permission.DOWNLOAD_WITHOUT_NOTIFICATION",
         "android.permission.REQUEST_INSTALL_PACKAGES"
      ],
      "third_party": [
         "com.facebook.lite.permission.C2D_MESSAGE",
         "com.facebook.receiver.permission.ACCESS",
         "com.google.android.c2dm.permission.RECEIVE",
         "com.facebook.katana.provider.ACCESS",
         "com.facebook.orca.provider.ACCESS",
         "com.facebook.mlite.provider.ACCESS",
         "com.facebook.wakizashi.provider.ACCESS",
         "com.facebook.permission.prod.FB_APP_COMMUNICATION",
         "com.sec.android.provider.badge.permission.WRITE",
         "com.sec.android.provider.badge.permission.READ",
         "com.htc.launcher.permission.READ_SETTINGS",
         "com.htc.launcher.permission.UPDATE_SHORTCUT",
         "com.sonyericsson.home.permission.BROADCAST_BADGE",
         "com.sonymobile.home.permission.PROVIDER_INSERT_BADGE",
         "com.huawei.android.launcher.permission.CHANGE_BADGE",
         "com.huawei.android.launcher.permission.READ_SETTINGS",
         "com.huawei.android.launcher.permission.WRITE_SETTINGS",
         "com.oppo.launcher.permission.READ_SETTINGS",
         "com.oppo.launcher.permission.WRITE_SETTINGS"
      ]
   },
   "providers": {
      "names": [
         "com.facebook.lite.deviceid.FbLitePhoneIdProvider",
         "android.support.v4.content.FileProvider",
         "com.facebook.lite.photo.PhotoFileProvider",
         "com.facebook.lite.photo.MediaContentProvider",
         "com.facebook.lite.diode.UserValuesProvider"
      ]
   },
   "receivers": {
      "names": [
         {
            "intent_filters": {
               "action": [
                  "com.google.android.c2dm.intent.RECEIVE",
                  "com.google.android.c2dm.intent.REGISTRATION"
               ],
               "category": [
                  "com.facebook.lite"
               ]
            },
            "name": "com.google.android.gms.gcm.GcmReceiver"
         },
         {
            "intent_filters": {
               "action": [
                  "com.android.vending.INSTALL_REFERRER"
               ]
            },
            "name": "com.facebook.lite.campaign.CampaignReceiver"
         },
         {
            "intent_filters": {
               "action": [
                  "com.facebook.GET_PHONE_ID"
               ]
            },
            "name": "com.facebook.lite.deviceid.FbLitePhoneIdRequestReceiver"
         },
         {
            "intent_filters": {},
            "name": "com.facebook.lite.deviceid.FbLitePhoneIdUpdater$LocalBroadcastReceiver"
         },
         {
            "intent_filters": {
               "action": [
                  "com.facebook.rti.fbns.intent.RECEIVE"
               ],
               "category": [
                  "com.facebook.lite"
               ]
            },
            "name": "com.facebook.lite.FbnsIntentService$CallbackReceiver"
         },
         {
            "intent_filters": {
               "action": [
                  "android.intent.action.MY_PACKAGE_REPLACED",
                  "android.intent.action.BOOT_COMPLETED",
                  "android.net.conn.CONNECTIVITY_CHANGE",
                  "android.intent.action.USER_PRESENT"
               ]
            },
            "name": "com.facebook.rti.push.service.MqttSystemBroadcastReceiver"
         },
         {
            "intent_filters": {
               "action": [
                  "com.facebook.lite.NOTIFICATION_DISMISS"
               ]
            },
            "name": "com.facebook.lite.notification.PushNotificationLogBroadcastReceiver"
         },
         {
            "intent_filters": {},
            "name": "com.facebook.lite.browser.ChromeCustomTabsReceiver"
         },
         {
            "intent_filters": {
               "action": [
                  "ANDROID.INTENT.ACTION.BOOT_COMPLETED"
               ]
            },
            "name": "com.facebook.lite.intent.IntentScheduler"
         },
         {
            "intent_filters": {},
            "name": "com.facebook.lite.intent.WakefulIntentForwarder"
         },
         {
            "intent_filters": {
               "action": [
                  "android.intent.action.ACTION_SHUTDOWN",
                  "android.intent.action.QUICKBOOT_POWEROFF",
                  "android.intent.action.BOOT_COMPLETED",
                  "android.intent.action.LOCKED_BOOT_COMPLETED",
                  "android.intent.action.QUICKBOOT_POWERON"
               ]
            },
            "name": "com.facebook.lite.datausage.DataUsageBroadCastReceiver"
         },
         {
            "intent_filters": {
               "action": [
                  "android.intent.action.DOWNLOAD_NOTIFICATION_CLICKED"
               ]
            },
            "name": "com.facebook.appupdate.DownloadNotificationClickReceiver"
         },
         {
            "intent_filters": {
               "action": [
                  "android.intent.action.DOWNLOAD_COMPLETE"
               ]
            },
            "name": "com.facebook.appupdate.DownloadCompleteReceiver"
         },
         {
            "intent_filters": {
               "action": [
                  "com.facebook.oxygen.preloads.sdk.firstparty.managedappcache.IsManagedAppFlag"
               ]
            },
            "name": "com.facebook.oxygen.preloads.sdk.firstparty.managedappcache.IsManagedAppFlag"
         },
         {
            "intent_filters": {
               "action": [
                  "com.facebook.oxygen.preloads.sdk.firstparty.managedappcache.IS_MANAGED_APP_CHANGED"
               ]
            },
            "name": "com.facebook.oxygen.preloads.sdk.firstparty.managedappcache.IsManagedAppReceiver"
         },
         {
            "intent_filters": {},
            "name": "com.facebook.oxygen.preloads.sdk.firstparty.settings.TosAcceptedFlag"
         }
      ]
   },
   "services": {
      "names": [
         {
            "intent_filters": {},
            "name": "com.facebook.lite.ForegroundService"
         },
         {
            "intent_filters": {},
            "name": "com.facebook.lite.FbnsIntentService"
         },
         {
            "intent_filters": {},
            "name": "com.facebook.lite.FbnsForegroundService"
         },
         {
            "intent_filters": {},
            "name": "com.facebook.analyticslite.memory.MemoryDumpUploadService"
         },
         {
            "intent_filters": {},
            "name": "com.facebook.rti.push.service.FbnsService"
         },
         {
            "intent_filters": {
               "action": [
                  "com.google.android.gms.iid.InstanceID"
               ]
            },
            "name": "com.facebook.lite.GcmInstanceIDListenerService"
         },
         {
            "intent_filters": {
               "action": [
                  "com.google.android.c2dm.intent.RECEIVE"
               ]
            },
            "name": "com.facebook.lite.GcmListenerService"
         },
         {
            "intent_filters": {},
            "name": "com.facebook.lite.intent.WakefulIntentService"
         },
         {
            "intent_filters": {},
            "name": "com.facebook.lite.service.PrefetchIntentService"
         },
         {
            "intent_filters": {},
            "name": "com.facebook.lite.service.PrefetchJobIntentService"
         },
         {
            "intent_filters": {},
            "name": "com.facebook.lite.service.AppInitService"
         },
         {
            "intent_filters": {},
            "name": "com.facebook.lite.messagingapps.FirstPartyMessagingAppsDetectionService"
         },
         {
            "intent_filters": {},
            "name": "com.facebook.lite.service.MediaUploadService"
         },
         {
            "intent_filters": {},
            "name": "com.facebook.appupdate.AppUpdateService"
         },
         {
            "intent_filters": {},
            "name": "com.facebook.appupdate.DownloadCompleteService"
         },
         {
            "intent_filters": {},
            "name": "com.facebook.oxygen.preloads.sdk.firstparty.managedappcache.IsManagedAppCacheService"
         },
         {
            "intent_filters": {},
            "name": "com.facebook.oxygen.preloads.sdk.firstparty.managedappcache.IsManagedAppCacheJobService"
         },
         {
            "intent_filters": {
               "action": [
                  "com.facebook.video.nxplayer.service.HeroPlayerService"
               ]
            },
            "name": "com.facebook.video.heroplayer.service.HeroService"
         },
         {
            "intent_filters": {},
            "name": "com.facebook.voltron.download.AppModuleDownloadJobService"
         },
         {
            "intent_filters": {},
            "name": "com.facebook.voltron.download.AppModuleAlarmBasedDownloader"
         }
      ]
   },
   "specials": {
      "good_developer": false
   },
   "strings": [
      "",
      "Ljava/io/File;",
      "",
      "Ljava/lang/StringBuilder;",
      "",
      "Ljava/io/FileOutputStream;",
      "",
      "Ljava/io/IOException;",
      ".'",
      "LX/009;",
      "",
      "Ljava/lang/Object;",
      "\"",
      "LX/000;",
      "",
      "Ljava/util/HashSet;",
      "",
      "Ljava/util/ArrayList;",
      "",
      "Ljava/lang/String;",
      "",
      "Ljava/lang/IllegalArgumentException;",
      "b",
      "LX/001;",
      "D\"",
      "LX/002;",
      "",
      "[Ljava/lang/Object;",
      "",
      "Ljava/io/BufferedInputStream;",
      "",
      "Ljava/io/BufferedOutputStream;",
      "",
      "[B",
      "&#",
      "LX/003;",
      "f#",
      "LX/004;",
      "H$",
      "LX/005;",
      "*%",
      "LX/006;",
      "j%",
      "LX/007;",
      "L&",
      "LX/008;",
      "n'",
      "LX/00A;",
      "",
      "Ljava/io/FileInputStream;",
      "",
      "Ljava/io/BufferedReader;",
      "",
      "Ljava/io/InputStreamReader;",
      "P(",
      "LX/00B;",
      "2)",
      "LX/00C;",
      "",
      "Ljava/lang/ClassLoader;",
      "",
      "Ljava/lang/Exception;",
      "",
      "Ljava/lang/RuntimeException;",
      "",
      "[Ldalvik/system/DexFile;",
      "",
      "Ldalvik/system/DexFile;",
      "",
      "Ljava/lang/ClassNotFoundException;",
      "",
      "Ljava/lang/ClassCastException;",
      "",
      "Ljava/lang/NoSuchFieldException;",
      "",
      "Ljava/lang/IllegalAccessException;",
      "",
      "Ljava/lang/IndexOutOfBoundsException;",
      "parent",
      "r)",
      "LX/00D;",
      "T*",
      "LX/00E;",
      "z-",
      "LX/00J;",
      "\\.",
      "LX/00K;",
      "6+",
      "LX/00F;",
      "HD",
      "LX/00o;",
      "",
      "[Ljava/lang/String;",
      "*E",
      "LX/00p;",
      "",
      "Ljava/lang/UnsatisfiedLinkError;",
      "",
      "Ljava/lang/reflect/InvocationTargetException;",
      "v+",
      "LX/00G;",
      "",
      "Ljava/util/HashMap;",
      "",
      "Ljava/io/RandomAccessFile;",
      "",
      "Ljava/lang/Throwable;",
      "&C",
      "LX/00m;",
      "`0",
      "[LX/00N;",
      "`0",
      "LX/00N;",
      "nG",
      "LX/00t;",
      "",
      "Ljava/io/EOFException;",
      ".G",
      "LX/00s;",
      "",
      "Ljava/lang/Thread;",
      "X,",
      "LX/00H;",
      "^?",
      "LX/00h;",
      ":-",
      "LX/00I;",
      "d2",
      "LX/00Q;",
      ">/",
      "LX/00L;",
      "",
      "Ljava/io/Closeable;",
      "",
      "Ljava/lang/AssertionError;",
      "~/",
      "LX/00M;",
      "B1",
      "LX/00O;",
      "$2",
      "LX/00P;",
      "",
      "Ljava/util/zip/ZipFile;",
      "B1",
      "[LX/00O;",
      "",
      "Ljava/util/LinkedHashSet;",
      "",
      "Landroid/text/TextUtils$SimpleStringSplitter;",
      "F3",
      "LX/00R;",
      "2I",
      "Lcom/facebook/xzdecoder/XzInputStream;",
      "(4",
      "LX/00S;",
      "PH",
      "LX/00u;",
      "",
      "Ljava/io/InputStream;",
      "",
      "Ljava/lang/NullPointerException;",
      "",
      "Ljava/lang/IllegalStateException;",
      "h4",
      "LX/00T;",
      "J5",
      "LX/00U;",
      "",
      "[Ljava/lang/Class;",
      "",
      "Landroid/app/Application;",
      "l6",
      "LX/00V;",
      "4:",
      "LX/00a;",
      "",
      "Landroid/content/res/Resources$NotFoundException;",
      "R9",
      "LX/00Z;",
      "08",
      "LX/00X;",
      "",
      "Ljava/util/zip/ZipInputStream;",
      "",
      "Landroid/os/StatFs;",
      ",6",
      "Lcom/facebook/lite/ClientApplicationSplittedShell;",
      "ClientApplicationSplittedShell",
      "N7",
      "LX/00W;",
      "p8",
      "LX/00Y;",
      "d",
      "t:",
      "LX/00b;",
      "V;",
      "LX/00c;",
      "h",
      "8<",
      "LX/00d;",
      "",
      "Ljava/util/concurrent/CountDownLatch;",
      "x<",
      "LX/00e;",
      "",
      "Landroid/system/ErrnoException;",
      "Z=",
      "Lcom/facebook/soloader/SysUtil$LollipopSysdeps;",
      "",
      "Landroid/content/pm/PackageManager$NameNotFoundException;",
      "<>",
      "LX/00f;",
      "@@",
      "LX/00i;",
      "|>",
      "LX/00g;",
      "",
      "Ljava/util/zip/ZipEntry;",
      "bA",
      "LX/00k;",
      "bA",
      "[LX/00k;",
      "DB",
      "LX/00l;",
      "\"A",
      "LX/00j;",
      "",
      "Ljava/lang/Comparable;",
      "fC",
      "LX/00n;",
      "",
      "Ljava/util/concurrent/locks/ReentrantReadWriteLock;",
      "",
      "Ljava/util/concurrent/ConcurrentHashMap;",
      "",
      "Ljava/lang/NoClassDefFoundError;",
      "",
      "Ldalvik/system/BaseDexClassLoader;",
      "jE",
      "LX/00q;",
      "6+",
      "[LX/00F;",
      "",
      "Ljava/lang/Runtime;",
      "",
      "Ljava/lang/NoSuchMethodException;",
      "",
      "Ljava/lang/SecurityException;",
      "LF",
      "LX/00r;",
      "",
      "Ljava/math/BigInteger;",
      "",
      "Ljava/security/NoSuchAlgorithmException;",
      "",
      "Ljava/lang/Runnable;",
      "fb_xzdecoder_static",
      "modules",
      "_",
      "dex_modules",
      "opt_dex_modules",
      ".tmp",
      "Unable to rename a file",
      "libs",
      "Native loader must not be null",
      "Unable to create directory %b %b %b %d",
      "metadata.txt",
      "libs.txt",
      "UTF-8",
      ".requires ",
      "dex",
      ".",
      " ",
      ".so",
      "dalvik.system.BaseDexClassLoader",
      "pathList",
      "dalvik.system.DexPathList",
      "dexElements",
      "dalvik.system.DexPathList$Element",
      "dexFile",
      "ClassLoaderWithDexPromotion didn't find ",
      "ndroid.support",
      "test.",
      "/data/local/tmp/ctscan_test_running",
      "/app_libs",
      "lib-assets",
      "lib-xzs",
      "FbSoLoader",
      "IOException during init",
      " not found on ",
      " found on ",
      " loaded implicitly",
      "SoLoader.getElfDependencies[",
      "]",
      "file is not ELF",
      "ELF file does not contain dynamic linking information",
      "malformed DT_NEEDED section",
      "Dynamic section string-table not found",
      "did not find file offset of DT_STRTAB table",
      "Loading lib dependencies: ",
      "/",
      "Error: Cannot load ",
      "SoLoader",
      "Error when loading lib: ",
      " lib hash: ",
      " search path is ",
      "bad ELF magic",
      "[root = ",
      " flags = ",
      "rw",
      "cannot mkdir: ",
      "dso_lock",
      "locked dso store ",
      "dso_state",
      "dso store ",
      " regeneration interrupted: wiping clean",
      "dso_deps",
      "regenerating DSO store ",
      "dso_manifest",
      "wrong dso manifest version",
      "illegal number of shared libraries",
      "unable to list directory ",
      "deleting unaccounted-for file ",
      "extracting DSO ",
      "cannot make directory writable for us: ",
      "cannot make file executable: ",
      "fb-UnpackingSoSource",
      "error overwriting ",
      " trying to delete and start over",
      "Finished regenerating DSO store ",
      "releasing dso store lock for ",
      "dso store is up-to-date: ",
      "not releasing dso store lock for ",
      " (syncer thread started)",
      "SoSync:",
      "^assets/lib/([^/]+)/([^/]+\\.so)$",
      "assets/lib/libs.xzs",
      "assets/lib/metadata.txt",
      " zipSource = ",
      " xzsPath = ",
      "illegal line in xzs metadata: [",
      "assets/lib/",
      "xz stream terminated prematurely",
      "%s",
      " [",
      ", ",
      "com.facebook.lite.ClientApplication",
      "Ignoring dex metadata pragma: ",
      "Illegal line in manifest file: ",
      ".dex",
      "No secondary dex file, trying to start anyway",
      "FbSoLoader failed init: ",
      "No secondary dex manifest file, trying to start anyway",
      "Dex asset name is: %s, hash is: %s",
      "dex_lock",
      "Failed to load secondary dex file",
      "Failed to delete secondary dex file after trying to load",
      "More then one secondary dex isn't supported",
      "Failed to list files in dex store root",
      ".xzs.tmp~",
      "secondary.dex.jar.xzs",
      "extract_dex",
      "tmp_dex.dex",
      ".xzs",
      ".xz",
      ".jar",
      "Found class in zip file: ",
      "classes.dex",
      "zip file %s did not contain a classes.dex",
      "malformed dex asset name: ",
      "malformed jar asset name: ",
      "failed to write file (after writing ",
      " and reading ",
      " bytes)",
      "rename of ",
      " to ",
      " failed",
      "load_dex",
      "failed to extract secondary dex, available space: ",
      "secondary-program-dex-jars/",
      "total_time",
      "prog-",
      ".odex",
      "error closing %s",
      "Failed to list files in: ",
      "Deleting files in directory: ",
      "Deleting: ",
      "Failed to delete: ",
      "could not delete: ",
      "cannot list directory ",
      "_lock",
      "r",
      "^lib/([^/]+)/([^/]+\\.so)$",
      "allowing consideration of corrupted lib %s",
      "allowing consideration of ",
      ": self-extraction preferred",
      "allowing considering of %s: %s not in system lib dir",
      "allowing consideration of %s: sysdir file length is %s, but the file is %s bytes long in the APK",
      "not allowing consideration of ",
      ": deferring to libdir",
      "context.getApplicationContext returned null, holding reference to original context.",
      "pseudo-zip-hash-1-%s-%s-%s-%s",
      "ELF file truncated",
      "ClassLoader ",
      " should be of type BaseDexClassLoader",
      "getLdLibraryPath",
      "LD_LIBRARY_PATH",
      "/vendor/lib:/system/lib",
      ":",
      "adding system library source: ",
      "lib-main",
      "adding backup  source: ",
      "Preparing SO source: ",
      "adding application source: ",
      "init finish: ",
      " SO sources prepared",
      "!",
      "nativeLoad",
      "Cannot get nativeLoad method",
      "Cannot call getLdLibraryPath",
      "Prepending to SO sources: ",
      "Prepended to SO sources: ",
      "Could not load: ",
      " because no SO source exists",
      "couldn't find DSO to load: ",
      "SoLoader.loadLibrary[",
      "Native library directory updated from ",
      " caused by: ",
      "unexpected e_machine:",
      "http://www.android.com/",
      "java.vendor.url",
      "SoLoader.init() not yet called",
      "MD5",
      "%32x",
      "APK was built for a different platform",
      " (from syncer thread)",
      "Stream closed",
      "buf.length = %d, off = %d, len = %d",
      "",
      "<clinit>",
      "<init>",
      "",
      "B",
      "BIG_ENDIAN",
      "",
      "C",
      "CI",
      "CPU_ABI",
      "CPU_ABI2",
      "EINVAL",
      "ENOSYS",
      "EOPNOTSUPP",
      "",
      "I",
      "II",
      "III",
      "IL",
      "ILI",
      "ILII",
      "ILIL",
      "ILILL",
      "ILJ",
      "ILL",
      "ILLJ",
      "ILLL",
      "",
      "J",
      "JJ",
      "JJLIILII",
      "JLLJ",
      "L",
      "LC",
      "LI",
      "LII",
      "LITTLE_ENDIAN",
      "LJ",
      "LL",
      "LLI",
      "LLL",
      "LLLI",
      "LLLL",
      "LLZ",
      "LZ",
      "",
      "Landroid/content/Context;",
      "",
      "Landroid/content/pm/ApplicationInfo;",
      "",
      "Landroid/content/pm/PackageInfo;",
      "",
      "Landroid/content/pm/PackageManager;",
      "",
      "Landroid/content/res/AssetManager;",
      "",
      "Landroid/content/res/Configuration;",
      "",
      "Landroid/os/Build$VERSION;",
      "",
      "Landroid/os/Build;",
      "",
      "Landroid/os/Parcel;",
      "",
      "Landroid/os/StrictMode$ThreadPolicy;",
      "",
      "Landroid/os/StrictMode;",
      "",
      "Landroid/os/SystemClock;",
      "",
      "Landroid/os/Trace;",
      "",
      "Landroid/system/Os;",
      "",
      "Landroid/system/OsConstants;",
      "",
      "Landroid/text/TextUtils;",
      "",
      "Landroid/util/Log;",
      "",
      "Ljava/io/DataInput;",
      "",
      "Ljava/io/DataOutput;",
      "",
      "Ljava/io/FileDescriptor;",
      "",
      "Ljava/io/OutputStream;",
      "",
      "Ljava/io/Reader;",
      "",
      "Ljava/lang/Boolean;",
      "",
      "Ljava/lang/CharSequence;",
      "",
      "Ljava/lang/Class;",
      "",
      "Ljava/lang/Integer;",
      "",
      "Ljava/lang/Iterable;",
      "",
      "Ljava/lang/Long;",
      "",
      "Ljava/lang/Math;",
      "",
      "Ljava/lang/System;",
      "",
      "Ljava/lang/reflect/Constructor;",
      "",
      "Ljava/lang/reflect/Field;",
      "",
      "Ljava/lang/reflect/Method;",
      "",
      "Ljava/nio/Buffer;",
      "",
      "Ljava/nio/ByteBuffer;",
      "",
      "Ljava/nio/ByteOrder;",
      "",
      "Ljava/nio/channels/FileChannel;",
      "",
      "Ljava/nio/channels/FileLock;",
      "",
      "Ljava/security/MessageDigest;",
      "",
      "Ljava/util/Arrays;",
      "",
      "Ljava/util/Collection;",
      "",
      "Ljava/util/Collections;",
      "",
      "Ljava/util/Enumeration;",
      "",
      "Ljava/util/Iterator;",
      "",
      "Ljava/util/List;",
      "",
      "Ljava/util/Locale;",
      "",
      "Ljava/util/Map;",
      "",
      "Ljava/util/Set;",
      "",
      "Ljava/util/concurrent/TimeUnit;",
      "",
      "Ljava/util/concurrent/locks/ReentrantReadWriteLock$ReadLock;",
      "",
      "Ljava/util/concurrent/locks/ReentrantReadWriteLock$WriteLock;",
      "",
      "Ljava/util/regex/Matcher;",
      "",
      "Ljava/util/regex/Pattern;",
      "NANOSECONDS",
      "",
      "S",
      "SDK_INT",
      "SLLJ",
      "SUPPORTED_ABIS",
      "",
      "V",
      "VB",
      "VC",
      "VI",
      "VIL",
      "VJ",
      "VL",
      "VLB",
      "VLI",
      "VLII",
      "VLILII",
      "VLJ",
      "VLJJ",
      "VLL",
      "VLLI",
      "VLLII",
      "VLLIJ",
      "VLLLL",
      "VLLLLL",
      "VLLLLLL",
      "VLLLLZ",
      "VZ",
      "VZL",
      "VZLLLL",
      "",
      "Z",
      "ZL",
      "ZLI",
      "ZLL",
      "ZLLIL",
      "ZZZ",
      "",
      "[Ljava/io/File;",
      "__redex_internal_original_name",
      "a",
      "abs",
      "add",
      "addAll",
      "addSuppressed",
      "allocate",
      "allowThreadDiskReads",
      "allowThreadDiskWrites",
      "append",
      "arraycopy",
      "attachBaseContext",
      "available",
      "b",
      "beginSection",
      "c",
      "canRead",
      "canWrite",
      "charAt",
      "close",
      "com.facebook.soloader.UnpackingSoSource$1",
      "compareTo",
      "compile",
      "contains",
      "containsKey",
      "countDown",
      "createPackageContext",
      "dataDir",
      "decompressStream",
      "delete",
      "digest",
      "e",
      "end",
      "endSection",
      "endsWith",
      "entries",
      "equals",
      "errno",
      "exists",
      "f",
      "fallocateIfSupported",
      "findClass",
      "flags",
      "flush",
      "forName",
      "format",
      "g",
      "get",
      "getAbsoluteFile",
      "getAbsolutePath",
      "getApplicationContext",
      "getApplicationInfo",
      "getAssets",
      "getAvailableBlocks",
      "getAvailableBlocksLong",
      "getBlockSize",
      "getBlockSizeLong",
      "getCanonicalFile",
      "getCanonicalPath",
      "getChannel",
      "getClass",
      "getClassLoader",
      "getCompressedSize",
      "getConstructor",
      "getCrc",
      "getDeclaredField",
      "getDeclaredMethod",
      "getDir",
      "getEntry",
      "getFD",
      "getFilePointer",
      "getFreeSpace",
      "getInputStream",
      "getInstance",
      "getInt",
      "getLong",
      "getMessage",
      "getMethod",
      "getName",
      "getNextEntry",
      "getPackageInfo",
      "getPackageManager",
      "getPackageName",
      "getParent",
      "getPath",
      "getProperty",
      "getRuntime",
      "getShort",
      "getSize",
      "getSupportedAbis",
      "getSystemService",
      "getenv",
      "group",
      "hasMoreElements",
      "hasNext",
      "hashCode",
      "i",
      "indexOf",
      "initCause",
      "initializeLibrary",
      "initializeState",
      "invoke",
      "isDirectory",
      "isEmpty",
      "isFile",
      "iterator",
      "j",
      "join",
      "lastIndexOf",
      "lastModified",
      "length",
      "limit",
      "list",
      "listFiles",
      "load",
      "loadClass",
      "loadDex",
      "loadLibrary",
      "lock",
      "mapLibraryName",
      "marshall",
      "matcher",
      "matches",
      "min",
      "mkdirs",
      "nanoTime",
      "nativeLibraryDir",
      "newInstance",
      "newSetFromMap",
      "next",
      "nextElement",
      "obtain",
      "onConfigurationChanged",
      "onCreate",
      "onLowMemory",
      "onTerminate",
      "open",
      "order",
      "parseInt",
      "position",
      "posix_fallocate",
      "put",
      "read",
      "readByte",
      "readInt",
      "readLine",
      "readLock",
      "readUTF",
      "recycle",
      "release",
      "remaining",
      "renameTo",
      "run",
      "seek",
      "separator",
      "set",
      "setAccessible",
      "setExecutable",
      "setLength",
      "setString",
      "setThreadPolicy",
      "setWritable",
      "size",
      "skip",
      "sort",
      "sourceDir",
      "split",
      "start",
      "startsWith",
      "substring",
      "sync",
      "toArray",
      "toMillis",
      "toString",
      "unlock",
      "update",
      "uptimeMillis",
      "valueOf",
      "values",
      "versionCode",
      "w",
      "write",
      "writeByte",
      "writeInt",
      "writeLock",
      "writeLong",
      "writeString",
      "writeUTF"
   ]
}