{
   "activities": {
      "main": "org.chromium.webapk.shell_apk.MainActivity",
      "names": [
         {
            "intent_filters": {
               "action": [
                  "android.intent.action.MAIN",
                  "android.intent.action.VIEW"
               ],
               "category": [
                  "android.intent.category.LAUNCHER",
                  "android.intent.category.DEFAULT",
                  "android.intent.category.BROWSABLE"
               ]
            },
            "name": "org.chromium.webapk.shell_apk.MainActivity"
         }
      ]
   },
   "certificate": {
      "android_debug": false,
      "certificate_sha1": "",
      "common_name": "",
      "country_name": "",
      "has_android_certificate": false,
      "locality_name": "",
      "organization_name": "",
      "organization_unit_name": "",
      "state_or_province_name": ""
   },
   "files": {
      "names": [
         "AndroidManifest.xml",
         "res/drawable-hdpi-v4/last_resort_runtime_host_logo.png",
         "res/drawable-hdpi-v4/notification_badge.png",
         "res/drawable-mdpi-v4/notification_badge.png",
         "res/drawable-xhdpi-v4/notification_badge.png",
         "res/drawable-xxhdpi-v4/notification_badge.png",
         "res/drawable-xxxhdpi-v4/notification_badge.png",
         "res/layout/choose_host_browser_dialog.xml",
         "res/layout/host_browser_list_item.xml",
         "res/mipmap-mdpi-v4/app_icon.png",
         "res/mipmap-xhdpi-v4/app_icon.png",
         "res/mipmap-xxxhdpi-v4/app_icon.png",
         "resources.arsc",
         "classes.dex",
         "lib/armeabi-v7a/libfoo.so",
         "lib/x86/libfoo.so",
         "lib/mips/libfoo.so",
         "META-INF/APP.SF",
         "META-INF/APP.RSA",
         "META-INF/BROWSER.SF",
         "META-INF/BROWSER.RSA",
         "META-INF/MANIFEST.MF"
      ]
   },
   "general": {
      "apk_name": "ImageLabeler",
      "file_size": 78248,
      "minimun_sdk_version": "16",
      "package_name": "org.chromium.webapk.af5f3245c54e874b3",
      "sha256": "b6b800ddd1610e7fd8c09e120d5944fc2315d05dff12e05591814a4da91bbf71",
      "version_code": "24"
   },
   "gplaydata": {
      "exists": false
   },
   "methods": [
      "<clinit>",
      "a",
      "a",
      "<init>",
      "a",
      "<init>",
      "<init>",
      "equals",
      "hashCode",
      "<init>",
      "a",
      "<init>",
      "a",
      "<init>",
      "a",
      "<clinit>",
      "<init>",
      "a",
      "b",
      "c",
      "d",
      "e",
      "f",
      "<init>",
      "a",
      "<init>",
      "asBinder",
      "onTransact",
      "<clinit>",
      "a",
      "a",
      "a",
      "a",
      "a",
      "a",
      "a",
      "a",
      "a",
      "a",
      "b",
      "c",
      "d",
      "e",
      "<init>",
      "createConfigurationContext",
      "getAssets",
      "getResources",
      "getTheme",
      "onBind",
      "setTheme",
      "<init>",
      "a",
      "a",
      "a",
      "b",
      "createConfigurationContext",
      "getAssets",
      "getResources",
      "getTheme",
      "onCreate",
      "setTheme",
      "<clinit>",
      "<init>",
      "createConfigurationContext",
      "getAssets",
      "getResources",
      "getTheme",
      "onBind",
      "onCreate",
      "onDestroy",
      "setTheme",
      "<init>",
      "<init>",
      "<init>",
      "<init>",
      "createConfigurationContext",
      "getAssets",
      "getResources",
      "getTheme",
      "onBind",
      "setTheme",
      "a",
      "<init>",
      "onClick",
      "<init>",
      "onItemClick",
      "<init>",
      "onDismiss",
      "<init>",
      "compare",
      "<init>",
      "getView",
      "isEnabled",
      "<init>",
      "a",
      "a",
      "<init>",
      "a",
      "a",
      "<clinit>",
      "<init>",
      "a",
      "a",
      "b",
      "<init>",
      "a",
      "<init>",
      "onClick",
      "<init>",
      "onClick",
      "<init>",
      "onDismiss",
      "a",
      "a",
      "<init>",
      "a",
      "a",
      "<init>",
      "a",
      "a"
   ],
   "permissions": {
      "aosp": [
         "android.permission.VIBRATE"
      ],
      "declared": [],
      "names": [
         "android.permission.VIBRATE"
      ],
      "third_party": []
   },
   "providers": {
      "names": []
   },
   "receivers": {
      "names": []
   },
   "services": {
      "names": [
         {
            "intent_filters": {
               "action": [
                  "android.intent.action.MAIN"
               ],
               "category": [
                  "android.intent.category.WEBAPK_API"
               ]
            },
            "name": "org.chromium.webapk.shell_apk.WebApkServiceFactory"
         },
         {
            "intent_filters": {},
            "name": "org.chromium.webapk.shell_apk.WebApkSandboxedProcessService0"
         },
         {
            "intent_filters": {},
            "name": "org.chromium.webapk.shell_apk.WebApkSandboxedProcessService1"
         },
         {
            "intent_filters": {},
            "name": "org.chromium.webapk.shell_apk.WebApkSandboxedProcessService2"
         },
         {
            "intent_filters": {
               "action": [
                  "org.webapk.IDENTITY_SERVICE_API"
               ]
            },
            "name": "org.chromium.webapk.shell_apk.IdentityService"
         }
      ]
   },
   "specials": {
      "good_developer": false
   },
   "strings": [
      " with optimized directory ",
      ".dex",
      "<clinit>",
      "<init>",
      "An error has occured when initializing the try-with-resources desuguring strategy. The default strategy ",
      "BuildHooksAndroid.java",
      "BuildHooksAndroidImpl.java",
      "ChooseHostBrowserDialog.java",
      "Could not extract dex from assets",
      "Could not load dex from ",
      "Delete cached dex files.",
      "DexLoader.java",
      "F",
      "FI",
      "Failed to delete : ",
      "Failed to get remote context.",
      "Failed to get remote package info.",
      "Failed to retrieve value from android.os.Build$VERSION.SDK_INT due to the following exception.",
      "Google Chrome",
      "HostBrowserClassLoader.java",
      "I",
      "II",
      "IIL",
      "IIdentityService.java",
      "IL",
      "ILI",
      "ILII",
      "ILL",
      "IdentityService.java",
      "InstallHostBrowserDialog.java",
      "J",
      "L",
      "LI",
      "LIL",
      "LILL",
      "LILZ",
      "LL",
      "LLI",
      "LLL",
      "LLLL",
      "LLZ",
      "La/a/a/a/a/a/a/a;",
      "La/a/a/a/a/a/a/b;",
      "La/a/a/a/a/a/a/c;",
      "La/a/a/a/a/a/a/d;",
      "La/a/a/a/a/a/a/e;",
      "La/a/a/a/a/a/a/f;",
      "La/a/a/a/a/a/a/g;",
      "Landroid/app/Activity;",
      "Landroid/app/AlertDialog$Builder;",
      "Landroid/app/AlertDialog;",
      "Landroid/app/Service;",
      "Landroid/content/ActivityNotFoundException;",
      "Landroid/content/Context;",
      "Landroid/content/DialogInterface$OnClickListener;",
      "Landroid/content/DialogInterface$OnDismissListener;",
      "Landroid/content/DialogInterface;",
      "Landroid/content/Intent;",
      "Landroid/content/SharedPreferences$Editor;",
      "Landroid/content/SharedPreferences;",
      "Landroid/content/pm/ActivityInfo;",
      "Landroid/content/pm/ApplicationInfo;",
      "Landroid/content/pm/PackageInfo;",
      "Landroid/content/pm/PackageManager$NameNotFoundException;",
      "Landroid/content/pm/PackageManager;",
      "Landroid/content/pm/ResolveInfo;",
      "Landroid/content/res/AssetManager;",
      "Landroid/content/res/Configuration;",
      "Landroid/content/res/Resources$Theme;",
      "Landroid/content/res/Resources;",
      "Landroid/graphics/drawable/Drawable;",
      "Landroid/net/Uri$Builder;",
      "Landroid/net/Uri;",
      "Landroid/os/Binder;",
      "Landroid/os/Build$VERSION;",
      "Landroid/os/Bundle;",
      "Landroid/os/IBinder;",
      "Landroid/os/IInterface;",
      "Landroid/os/Looper;",
      "Landroid/os/Parcel;",
      "Landroid/os/StrictMode$ThreadPolicy;",
      "Landroid/os/StrictMode;",
      "Landroid/text/TextUtils;",
      "Landroid/util/Log;",
      "Landroid/view/ContextThemeWrapper;",
      "Landroid/view/LayoutInflater;",
      "Landroid/view/View;",
      "Landroid/view/ViewGroup;",
      "Landroid/widget/AdapterView$OnItemClickListener;",
      "Landroid/widget/AdapterView;",
      "Landroid/widget/ArrayAdapter;",
      "Landroid/widget/ImageView;",
      "Landroid/widget/ListAdapter;",
      "Landroid/widget/ListView;",
      "Landroid/widget/TextView;",
      "Ldalvik/system/BaseDexClassLoader;",
      "Ljava/io/File;",
      "Ljava/io/FileOutputStream;",
      "Ljava/io/IOException;",
      "Ljava/io/InputStream;",
      "Ljava/io/OutputStream;",
      "Ljava/io/PrintStream;",
      "Ljava/lang/AssertionError;",
      "Ljava/lang/Boolean;",
      "Ljava/lang/CharSequence;",
      "Ljava/lang/Class;",
      "Ljava/lang/ClassLoader;",
      "Ljava/lang/Exception;",
      "Ljava/lang/IllegalAccessException;",
      "Ljava/lang/Integer;",
      "Ljava/lang/NoSuchMethodException;",
      "Ljava/lang/NullPointerException;",
      "Ljava/lang/Object;",
      "Ljava/lang/RuntimeException;",
      "Ljava/lang/String;",
      "Ljava/lang/StringBuilder;",
      "Ljava/lang/System;",
      "Ljava/lang/Throwable;",
      "Ljava/lang/ref/Reference;",
      "Ljava/lang/ref/ReferenceQueue;",
      "Ljava/lang/ref/WeakReference;",
      "Ljava/lang/reflect/Constructor;",
      "Ljava/lang/reflect/Field;",
      "Ljava/lang/reflect/InvocationTargetException;",
      "Ljava/lang/reflect/Method;",
      "Ljava/util/ArrayList;",
      "Ljava/util/Arrays;",
      "Ljava/util/Collection;",
      "Ljava/util/Collections;",
      "Ljava/util/Comparator;",
      "Ljava/util/HashSet;",
      "Ljava/util/Iterator;",
      "Ljava/util/List;",
      "Ljava/util/Scanner;",
      "Ljava/util/Set;",
      "Ljava/util/concurrent/ConcurrentHashMap;",
      "Lorg/chromium/a/a;",
      "Lorg/chromium/a/b;",
      "Lorg/chromium/webapk/a/a/a/a;",
      "Lorg/chromium/webapk/a/a/a/b;",
      "Lorg/chromium/webapk/shell_apk/A;",
      "Lorg/chromium/webapk/shell_apk/IdentityService;",
      "Lorg/chromium/webapk/shell_apk/MainActivity;",
      "Lorg/chromium/webapk/shell_apk/WebApkSandboxedProcessService0;",
      "Lorg/chromium/webapk/shell_apk/WebApkSandboxedProcessService1;",
      "Lorg/chromium/webapk/shell_apk/WebApkSandboxedProcessService2;",
      "Lorg/chromium/webapk/shell_apk/WebApkServiceFactory;",
      "Lorg/chromium/webapk/shell_apk/a;",
      "Lorg/chromium/webapk/shell_apk/b;",
      "Lorg/chromium/webapk/shell_apk/c;",
      "Lorg/chromium/webapk/shell_apk/d;",
      "Lorg/chromium/webapk/shell_apk/e;",
      "Lorg/chromium/webapk/shell_apk/f;",
      "Lorg/chromium/webapk/shell_apk/g;",
      "Lorg/chromium/webapk/shell_apk/h;",
      "Lorg/chromium/webapk/shell_apk/i;",
      "Lorg/chromium/webapk/shell_apk/j;",
      "Lorg/chromium/webapk/shell_apk/k;",
      "Lorg/chromium/webapk/shell_apk/l;",
      "Lorg/chromium/webapk/shell_apk/m;",
      "Lorg/chromium/webapk/shell_apk/n;",
      "Lorg/chromium/webapk/shell_apk/o;",
      "Lorg/chromium/webapk/shell_apk/p;",
      "Lorg/chromium/webapk/shell_apk/q;",
      "Lorg/chromium/webapk/shell_apk/r;",
      "Lorg/chromium/webapk/shell_apk/s;",
      "Lorg/chromium/webapk/shell_apk/t;",
      "Lorg/chromium/webapk/shell_apk/u;",
      "Lorg/chromium/webapk/shell_apk/v;",
      "Lorg/chromium/webapk/shell_apk/w;",
      "Lorg/chromium/webapk/shell_apk/x;",
      "Lorg/chromium/webapk/shell_apk/y;",
      "Lorg/chromium/webapk/shell_apk/z;",
      "MainActivity.java",
      "R.java",
      "SDK_INT",
      "Suppressed: ",
      "TYPE",
      "The referent cannot be null",
      "ThrowableExtension.java",
      "Unable to create ClassLoader.",
      "Unable to create WebApkServiceImpl.",
      "Unable to launch browser in WebAPK mode.",
      "Url of the WebAPK: ",
      "V",
      "VI",
      "VIF",
      "VIFI",
      "VIIII",
      "VL",
      "VLI",
      "VLII",
      "VLIIII",
      "VLIL",
      "VLL",
      "VLLIJ",
      "VLLL",
      "VLLLL",
      "VLLLZ",
      "VZ",
      "WebApkSandboxedProcessService.java",
      "WebApkSandboxedProcessService0.java",
      "WebApkSandboxedProcessService1.java",
      "WebApkSandboxedProcessService2.java",
      "WebApkServiceFactory.java",
      "WebApkUtils.java",
      "Z",
      "ZI",
      "ZILLI",
      "ZL",
      "ZLL",
      "ZLLL",
      "ZLZ",
      "[B",
      "[Ljava/io/File;",
      "[Ljava/lang/Class;",
      "[Ljava/lang/Object;",
      "[Ljava/lang/String;",
      "a",
      "activityInfo",
      "add",
      "addFlags",
      "allowThreadDiskWrites",
      "android.intent.action.VIEW",
      "android.os.Build$VERSION",
      "append",
      "appendQueryParameter",
      "apply",
      "asBinder",
      "asList",
      "attachInterface",
      "b",
      "bind",
      "buildUpon",
      "c",
      "cancel",
      "clear",
      "close",
      "com.android.chrome",
      "com.chrome.beta",
      "com.chrome.canary",
      "com.chrome.dev",
      "com.google.android.apps.chrome",
      "com.google.android.apps.chrome.webapps.WebappManager.ACTION_START_WEBAPP",
      "com.google.devtools.build.android.desugar.runtime.twr_disable_mimic",
      "compare",
      "compareTo",
      "contains",
      "cr.DexLoader",
      "cr_HostBrowserClassLoader",
      "cr_MainActivity",
      "cr_WebApkServiceFactory",
      "cr_WebApkUtils",
      "create",
      "createConfigurationContext",
      "createPackageContext",
      "d",
      "delete",
      "desiredAssertionStatus",
      "destroy",
      "dex",
      "e",
      "edit",
      "enforceInterface",
      "equals",
      "err",
      "exists",
      "f",
      "findViewById",
      "finish",
      "forName",
      "from",
      "g",
      "get",
      "getAbsolutePath",
      "getApplicationContext",
      "getApplicationInfo",
      "getAssets",
      "getBoolean",
      "getBooleanExtra",
      "getCacheDir",
      "getClass",
      "getClassLoader",
      "getColor",
      "getConstructor",
      "getDataString",
      "getDimension",
      "getDimensionPixelSize",
      "getDir",
      "getField",
      "getFilesDir",
      "getHost",
      "getInt",
      "getIntExtra",
      "getIntent",
      "getMainLooper",
      "getMethod",
      "getName",
      "getPackageInfo",
      "getPackageManager",
      "getPackageName",
      "getPath",
      "getResources",
      "getScheme",
      "getSharedPreferences",
      "getString",
      "getSystemClassLoader",
      "getTheme",
      "getView",
      "hasNext",
      "hashCode",
      "host_browser_uid",
      "http:",
      "http://",
      "https:",
      "identityHashCode",
      "inflate",
      "intValue",
      "invoke",
      "isDirectory",
      "isEmpty",
      "isEnabled",
      "iterator",
      "length",
      "listFiles",
      "loadClass",
      "loadIcon",
      "loadLabel",
      "market://details?id=",
      "metaData",
      "mkdirs",
      "myLooper",
      "newInstance",
      "next",
      "nextInt",
      "onBind",
      "onClick",
      "onCreate",
      "onDestroy",
      "onDismiss",
      "onItemClick",
      "onTransact",
      "open",
      "optimized",
      "org.chromium.chrome.browser.WebApkChildProcessServiceImpl",
      "org.chromium.chrome.browser.webapk_force_navigation",
      "org.chromium.chrome.browser.webapk_package_name",
      "org.chromium.chrome.browser.webapp_source",
      "org.chromium.chrome.browser.webapp_url",
      "org.chromium.webapk.lib.common.identity_service.IIdentityService",
      "org.chromium.webapk.lib.runtime_library.WebApkServiceImpl",
      "org.chromium.webapk.shell_apk",
      "org.chromium.webapk.shell_apk.dex_version",
      "org.chromium.webapk.shell_apk.loggedIntentUrlParam",
      "org.chromium.webapk.shell_apk.runtimeHost",
      "org.chromium.webapk.shell_apk.runtimeHostApplicationName",
      "org.chromium.webapk.shell_apk.scope",
      "org.chromium.webapk.shell_apk.startUrl",
      "org.chromium.webapk.shell_apk.version_code",
      "packageName",
      "parse",
      "poll",
      "print",
      "printStackTrace",
      "println",
      "putExtra",
      "putInt",
      "putString",
      "queryIntentActivities",
      "read",
      "remove",
      "resolveActivity",
      "runtime_host",
      "setAction",
      "setAdapter",
      "setCustomTitle",
      "setEnabled",
      "setImageDrawable",
      "setImageResource",
      "setNegativeButton",
      "setOnDismissListener",
      "setOnItemClickListener",
      "setPackage",
      "setPadding",
      "setPaddingRelative",
      "setPositiveButton",
      "setSingleLine",
      "setText",
      "setTextColor",
      "setTextSize",
      "setTheme",
      "setThreadPolicy",
      "setView",
      "show",
      "size",
      "small_icon_id",
      "sort",
      "startActivity",
      "startsWith",
      "stopSelf",
      "toString",
      "uid",
      "valueOf",
      "versionCode",
      "w",
      "webapk",
      "webapk_dex_version.txt",
      "will be used. The error is: ",
      "write",
      "writeNoException",
      "writeString"
   ]
}