{
   "activities": {
      "main": "net.coocent.eq.bassbooster.MainActivity",
      "names": [
         {
            "intent_filters": {
               "action": [
                  "android.intent.action.MAIN"
               ],
               "category": [
                  "android.intent.category.LAUNCHER"
               ]
            },
            "name": "net.coocent.eq.bassbooster.MainActivity"
         },
         {
            "intent_filters": {},
            "name": "net.coocent.android.xmlparser.GiftActivity"
         },
         {
            "intent_filters": {},
            "name": "net.coocent.tool.visualizer.VisualizerActivity"
         },
         {
            "intent_filters": {},
            "name": "com.google.android.gms.ads.AdActivity"
         },
         {
            "intent_filters": {},
            "name": "net.coocent.android.xmlparser.PrivacyActivity"
         },
         {
            "intent_filters": {},
            "name": "net.coocent.android.xmlparser.splash.SplashScreenActivity"
         },
         {
            "intent_filters": {},
            "name": "com.google.android.gms.common.api.GoogleApiActivity"
         }
      ]
   },
   "certificate": {
      "android_debug": false,
      "certificate_sha1": "",
      "common_name": "",
      "country_name": "",
      "has_android_certificate": false,
      "locality_name": "",
      "organization_name": "",
      "organization_unit_name": "",
      "state_or_province_name": ""
   },
   "files": {
      "names": [
         "AndroidManifest.xml",
         "META-INF/services/com.google.protobuf.GeneratedExtensionRegistryLoader",
         "assets/.appkey",
         "assets/libjiagu.so",
         "assets/privacy.txt",
         "build-data.properties",
         "classes.dex",
         "jsr305_annotations/Jsr305_annotations.gwt.xml",
         "lib/armeabi/libX86Bridge.so",
         "res/anim/abc_fade_in.xml",
         "res/anim/abc_fade_out.xml",
         "res/anim/abc_grow_fade_in_from_bottom.xml",
         "res/anim/abc_popup_enter.xml",
         "res/anim/abc_popup_exit.xml",
         "res/anim/abc_shrink_fade_out_from_bottom.xml",
         "res/anim/abc_slide_in_bottom.xml",
         "res/anim/abc_slide_in_top.xml",
         "res/anim/abc_slide_out_bottom.xml",
         "res/anim/abc_slide_out_top.xml",
         "res/anim/anim_alpha.xml",
         "res/anim/anim_dialog_alpha_enter.xml",
         "res/anim/anim_dialog_alpha_exit.xml",
         "res/anim/anim_translate.xml",
         "res/anim/flashanimation.xml",
         "res/anim/load_animation.xml",
         "res/anim/loading.xml",
         "res/anim/newcount_in.xml",
         "res/anim/push_top_in2.xml",
         "res/anim/push_top_out2.xml",
         "res/anim/slide_bottom_in.xml",
         "res/anim/slide_bottom_out.xml",
         "res/anim/tooltip_enter.xml",
         "res/anim/tooltip_exit.xml",
         "res/color-v11/abc_background_cache_hint_selector_material_dark.xml",
         "res/color-v11/abc_background_cache_hint_selector_material_light.xml",
         "res/color-v23/abc_btn_colored_borderless_text_material.xml",
         "res/color-v23/abc_btn_colored_text_material.xml",
         "res/color-v23/abc_color_highlight_material.xml",
         "res/color-v23/abc_tint_btn_checkable.xml",
         "res/color-v23/abc_tint_default.xml",
         "res/color-v23/abc_tint_edittext.xml",
         "res/color-v23/abc_tint_seek_thumb.xml",
         "res/color-v23/abc_tint_spinner.xml",
         "res/color-v23/abc_tint_switch_track.xml",
         "res/color/abc_btn_colored_borderless_text_material.xml",
         "res/color/abc_btn_colored_text_material.xml",
         "res/color/abc_hint_foreground_material_dark.xml",
         "res/color/abc_hint_foreground_material_light.xml",
         "res/color/abc_primary_text_disable_only_material_dark.xml",
         "res/color/abc_primary_text_disable_only_material_light.xml",
         "res/color/abc_primary_text_material_dark.xml",
         "res/color/abc_primary_text_material_light.xml",
         "res/color/abc_search_url_text.xml",
         "res/color/abc_secondary_text_material_dark.xml",
         "res/color/abc_secondary_text_material_light.xml",
         "res/color/abc_tint_btn_checkable.xml",
         "res/color/abc_tint_default.xml",
         "res/color/abc_tint_edittext.xml",
         "res/color/abc_tint_seek_thumb.xml",
         "res/color/abc_tint_spinner.xml",
         "res/color/abc_tint_switch_track.xml",
         "res/color/common_google_signin_btn_text_dark.xml",
         "res/color/common_google_signin_btn_text_light.xml",
         "res/color/common_google_signin_btn_tint.xml",
         "res/color/switch_thumb_material_dark.xml",
         "res/color/switch_thumb_material_light.xml",
         "res/drawable-anydpi-v21/ic_visualizer_main_menu.xml",
         "res/drawable-hdpi-v4/abc_ab_share_pack_mtrl_alpha.9.png",
         "res/drawable-hdpi-v4/abc_btn_check_to_on_mtrl_000.png",
         "res/drawable-hdpi-v4/abc_btn_check_to_on_mtrl_015.png",
         "res/drawable-hdpi-v4/abc_btn_radio_to_on_mtrl_000.png",
         "res/drawable-hdpi-v4/abc_btn_radio_to_on_mtrl_015.png",
         "res/drawable-hdpi-v4/abc_btn_switch_to_on_mtrl_00001.9.png",
         "res/drawable-hdpi-v4/abc_btn_switch_to_on_mtrl_00012.9.png",
         "res/drawable-hdpi-v4/abc_cab_background_top_mtrl_alpha.9.png",
         "res/drawable-hdpi-v4/abc_ic_commit_search_api_mtrl_alpha.png",
         "res/drawable-hdpi-v4/abc_ic_menu_copy_mtrl_am_alpha.png",
         "res/drawable-hdpi-v4/abc_ic_menu_cut_mtrl_alpha.png",
         "res/drawable-hdpi-v4/abc_ic_menu_paste_mtrl_am_alpha.png",
         "res/drawable-hdpi-v4/abc_ic_menu_selectall_mtrl_alpha.png",
         "res/drawable-hdpi-v4/abc_ic_menu_share_mtrl_alpha.png",
         "res/drawable-hdpi-v4/abc_ic_star_black_16dp.png",
         "res/drawable-hdpi-v4/abc_ic_star_black_36dp.png",
         "res/drawable-hdpi-v4/abc_ic_star_black_48dp.png",
         "res/drawable-hdpi-v4/abc_ic_star_half_black_16dp.png",
         "res/drawable-hdpi-v4/abc_ic_star_half_black_36dp.png",
         "res/drawable-hdpi-v4/abc_ic_star_half_black_48dp.png",
         "res/drawable-hdpi-v4/abc_list_divider_mtrl_alpha.9.png",
         "res/drawable-hdpi-v4/abc_list_focused_holo.9.png",
         "res/drawable-hdpi-v4/abc_list_longpressed_holo.9.png",
         "res/drawable-hdpi-v4/abc_list_pressed_holo_dark.9.png",
         "res/drawable-hdpi-v4/abc_list_pressed_holo_light.9.png",
         "res/drawable-hdpi-v4/abc_list_selector_disabled_holo_dark.9.png",
         "res/drawable-hdpi-v4/abc_list_selector_disabled_holo_light.9.png",
         "res/drawable-hdpi-v4/abc_menu_hardkey_panel_mtrl_mult.9.png",
         "res/drawable-hdpi-v4/abc_popup_background_mtrl_mult.9.png",
         "res/drawable-hdpi-v4/abc_scrubber_control_off_mtrl_alpha.png",
         "res/drawable-hdpi-v4/abc_scrubber_control_to_pressed_mtrl_000.png",
         "res/drawable-hdpi-v4/abc_scrubber_control_to_pressed_mtrl_005.png",
         "res/drawable-hdpi-v4/abc_scrubber_primary_mtrl_alpha.9.png",
         "res/drawable-hdpi-v4/abc_scrubber_track_mtrl_alpha.9.png",
         "res/drawable-hdpi-v4/abc_spinner_mtrl_am_alpha.9.png",
         "res/drawable-hdpi-v4/abc_switch_track_mtrl_alpha.9.png",
         "res/drawable-hdpi-v4/abc_tab_indicator_mtrl_alpha.9.png",
         "res/drawable-hdpi-v4/abc_text_select_handle_left_mtrl_dark.png",
         "res/drawable-hdpi-v4/abc_text_select_handle_left_mtrl_light.png",
         "res/drawable-hdpi-v4/abc_text_select_handle_middle_mtrl_dark.png",
         "res/drawable-hdpi-v4/abc_text_select_handle_middle_mtrl_light.png",
         "res/drawable-hdpi-v4/abc_text_select_handle_right_mtrl_dark.png",
         "res/drawable-hdpi-v4/abc_text_select_handle_right_mtrl_light.png",
         "res/drawable-hdpi-v4/abc_textfield_activated_mtrl_alpha.9.png",
         "res/drawable-hdpi-v4/abc_textfield_default_mtrl_alpha.9.png",
         "res/drawable-hdpi-v4/abc_textfield_search_activated_mtrl_alpha.9.png",
         "res/drawable-hdpi-v4/abc_textfield_search_default_mtrl_alpha.9.png",
         "res/drawable-hdpi-v4/ad_close.png",
         "res/drawable-hdpi-v4/ad_close_on.png",
         "res/drawable-hdpi-v4/common_full_open_on_phone.png",
         "res/drawable-hdpi-v4/common_google_signin_btn_icon_dark_normal_background.9.png",
         "res/drawable-hdpi-v4/common_google_signin_btn_icon_light_normal_background.9.png",
         "res/drawable-hdpi-v4/common_google_signin_btn_text_dark_normal_background.9.png",
         "res/drawable-hdpi-v4/common_google_signin_btn_text_light_normal_background.9.png",
         "res/drawable-hdpi-v4/googleg_disabled_color_18.png",
         "res/drawable-hdpi-v4/googleg_standard_color_18.png",
         "res/drawable-hdpi-v4/ic_visualizer_main_menu.png",
         "res/drawable-hdpi-v4/notification_bg_low_normal.9.png",
         "res/drawable-hdpi-v4/notification_bg_low_pressed.9.png",
         "res/drawable-hdpi-v4/notification_bg_normal.9.png",
         "res/drawable-hdpi-v4/notification_bg_normal_pressed.9.png",
         "res/drawable-hdpi-v4/notify_panel_notification_icon_bg.png",
         "res/drawable-hdpi-v4/update_background.png",
         "res/drawable-hdpi-v4/update_button01.png",
         "res/drawable-hdpi-v4/update_button01_on.png",
         "res/drawable-hdpi-v4/update_button02.png",
         "res/drawable-hdpi-v4/update_button02_on.png",
         "res/drawable-ldpi-v4/ic_visualizer_main_menu.png",
         "res/drawable-ldrtl-hdpi-v17/abc_ic_menu_copy_mtrl_am_alpha.png",
         "res/drawable-ldrtl-hdpi-v17/abc_ic_menu_cut_mtrl_alpha.png",
         "res/drawable-ldrtl-hdpi-v17/abc_spinner_mtrl_am_alpha.9.png",
         "res/drawable-ldrtl-mdpi-v17/abc_ic_menu_copy_mtrl_am_alpha.png",
         "res/drawable-ldrtl-mdpi-v17/abc_ic_menu_cut_mtrl_alpha.png",
         "res/drawable-ldrtl-mdpi-v17/abc_spinner_mtrl_am_alpha.9.png",
         "res/drawable-ldrtl-xhdpi-v17/abc_ic_menu_copy_mtrl_am_alpha.png",
         "res/drawable-ldrtl-xhdpi-v17/abc_ic_menu_cut_mtrl_alpha.png",
         "res/drawable-ldrtl-xhdpi-v17/abc_spinner_mtrl_am_alpha.9.png",
         "res/drawable-ldrtl-xxhdpi-v17/abc_ic_menu_copy_mtrl_am_alpha.png",
         "res/drawable-ldrtl-xxhdpi-v17/abc_ic_menu_cut_mtrl_alpha.png",
         "res/drawable-ldrtl-xxhdpi-v17/abc_spinner_mtrl_am_alpha.9.png",
         "res/drawable-ldrtl-xxxhdpi-v17/abc_ic_menu_copy_mtrl_am_alpha.png",
         "res/drawable-ldrtl-xxxhdpi-v17/abc_ic_menu_cut_mtrl_alpha.png",
         "res/drawable-ldrtl-xxxhdpi-v17/abc_spinner_mtrl_am_alpha.9.png",
         "res/drawable-mdpi-v4/abc_ab_share_pack_mtrl_alpha.9.png",
         "res/drawable-mdpi-v4/abc_btn_check_to_on_mtrl_000.png",
         "res/drawable-mdpi-v4/abc_btn_check_to_on_mtrl_015.png",
         "res/drawable-mdpi-v4/abc_btn_radio_to_on_mtrl_000.png",
         "res/drawable-mdpi-v4/abc_btn_radio_to_on_mtrl_015.png",
         "res/drawable-mdpi-v4/abc_btn_switch_to_on_mtrl_00001.9.png",
         "res/drawable-mdpi-v4/abc_btn_switch_to_on_mtrl_00012.9.png",
         "res/drawable-mdpi-v4/abc_cab_background_top_mtrl_alpha.9.png",
         "res/drawable-mdpi-v4/abc_ic_commit_search_api_mtrl_alpha.png",
         "res/drawable-mdpi-v4/abc_ic_menu_copy_mtrl_am_alpha.png",
         "res/drawable-mdpi-v4/abc_ic_menu_cut_mtrl_alpha.png",
         "res/drawable-mdpi-v4/abc_ic_menu_paste_mtrl_am_alpha.png",
         "res/drawable-mdpi-v4/abc_ic_menu_selectall_mtrl_alpha.png",
         "res/drawable-mdpi-v4/abc_ic_menu_share_mtrl_alpha.png",
         "res/drawable-mdpi-v4/abc_ic_star_black_16dp.png",
         "res/drawable-mdpi-v4/abc_ic_star_black_36dp.png",
         "res/drawable-mdpi-v4/abc_ic_star_black_48dp.png",
         "res/drawable-mdpi-v4/abc_ic_star_half_black_16dp.png",
         "res/drawable-mdpi-v4/abc_ic_star_half_black_36dp.png",
         "res/drawable-mdpi-v4/abc_ic_star_half_black_48dp.png",
         "res/drawable-mdpi-v4/abc_list_divider_mtrl_alpha.9.png",
         "res/drawable-mdpi-v4/abc_list_focused_holo.9.png",
         "res/drawable-mdpi-v4/abc_list_longpressed_holo.9.png",
         "res/drawable-mdpi-v4/abc_list_pressed_holo_dark.9.png",
         "res/drawable-mdpi-v4/abc_list_pressed_holo_light.9.png",
         "res/drawable-mdpi-v4/abc_list_selector_disabled_holo_dark.9.png",
         "res/drawable-mdpi-v4/abc_list_selector_disabled_holo_light.9.png",
         "res/drawable-mdpi-v4/abc_menu_hardkey_panel_mtrl_mult.9.png",
         "res/drawable-mdpi-v4/abc_popup_background_mtrl_mult.9.png",
         "res/drawable-mdpi-v4/abc_scrubber_control_off_mtrl_alpha.png",
         "res/drawable-mdpi-v4/abc_scrubber_control_to_pressed_mtrl_000.png",
         "res/drawable-mdpi-v4/abc_scrubber_control_to_pressed_mtrl_005.png",
         "res/drawable-mdpi-v4/abc_scrubber_primary_mtrl_alpha.9.png",
         "res/drawable-mdpi-v4/abc_scrubber_track_mtrl_alpha.9.png",
         "res/drawable-mdpi-v4/abc_spinner_mtrl_am_alpha.9.png",
         "res/drawable-mdpi-v4/abc_switch_track_mtrl_alpha.9.png",
         "res/drawable-mdpi-v4/abc_tab_indicator_mtrl_alpha.9.png",
         "res/drawable-mdpi-v4/abc_text_select_handle_left_mtrl_dark.png",
         "res/drawable-mdpi-v4/abc_text_select_handle_left_mtrl_light.png",
         "res/drawable-mdpi-v4/abc_text_select_handle_middle_mtrl_dark.png",
         "res/drawable-mdpi-v4/abc_text_select_handle_middle_mtrl_light.png",
         "res/drawable-mdpi-v4/abc_text_select_handle_right_mtrl_dark.png",
         "res/drawable-mdpi-v4/abc_text_select_handle_right_mtrl_light.png",
         "res/drawable-mdpi-v4/abc_textfield_activated_mtrl_alpha.9.png",
         "res/drawable-mdpi-v4/abc_textfield_default_mtrl_alpha.9.png",
         "res/drawable-mdpi-v4/abc_textfield_search_activated_mtrl_alpha.9.png",
         "res/drawable-mdpi-v4/abc_textfield_search_default_mtrl_alpha.9.png",
         "res/drawable-mdpi-v4/common_google_signin_btn_icon_dark_normal_background.9.png",
         "res/drawable-mdpi-v4/common_google_signin_btn_icon_light_normal_background.9.png",
         "res/drawable-mdpi-v4/common_google_signin_btn_text_dark_normal_background.9.png",
         "res/drawable-mdpi-v4/common_google_signin_btn_text_light_normal_background.9.png",
         "res/drawable-mdpi-v4/googleg_disabled_color_18.png",
         "res/drawable-mdpi-v4/googleg_standard_color_18.png",
         "res/drawable-mdpi-v4/ic_visualizer_main_menu.png",
         "res/drawable-mdpi-v4/notification_bg_low_normal.9.png",
         "res/drawable-mdpi-v4/notification_bg_low_pressed.9.png",
         "res/drawable-mdpi-v4/notification_bg_normal.9.png",
         "res/drawable-mdpi-v4/notification_bg_normal_pressed.9.png",
         "res/drawable-mdpi-v4/notify_panel_notification_icon_bg.png",
         "res/drawable-v21/abc_action_bar_item_background_material.xml",
         "res/drawable-v21/abc_btn_colored_material.xml",
         "res/drawable-v21/abc_edit_text_material.xml",
         "res/drawable-v21/abc_ratingbar_indicator_material.xml",
         "res/drawable-v21/abc_ratingbar_material.xml",
         "res/drawable-v21/abc_ratingbar_small_material.xml",
         "res/drawable-v21/btn_ripple01.xml",
         "res/drawable-v21/btn_ripple02.xml",
         "res/drawable-v21/btn_ripple03.xml",
         "res/drawable-v21/btn_ripple04.xml",
         "res/drawable-v21/btn_ripple05.xml",
         "res/drawable-v21/btn_ripple06.xml",
         "res/drawable-v21/btn_ripple07.xml",
         "res/drawable-v21/btn_ripple08.xml",
         "res/drawable-v21/btn_ripple09.xml",
         "res/drawable-v21/btn_ripple10.xml",
         "res/drawable-v21/btn_ripple11.xml",
         "res/drawable-v21/btn_ripple12.xml",
         "res/drawable-v21/btn_ripple13.xml",
         "res/drawable-v21/btn_ripple14.xml",
         "res/drawable-v21/btn_ripple15.xml",
         "res/drawable-v21/btn_ripple16.xml",
         "res/drawable-v21/notification_action_background.xml",
         "res/drawable-v23/abc_control_background_material.xml",
         "res/drawable-xhdpi-v4/abc_ab_share_pack_mtrl_alpha.9.png",
         "res/drawable-xhdpi-v4/abc_btn_check_to_on_mtrl_000.png",
         "res/drawable-xhdpi-v4/abc_btn_check_to_on_mtrl_015.png",
         "res/drawable-xhdpi-v4/abc_btn_radio_to_on_mtrl_000.png",
         "res/drawable-xhdpi-v4/abc_btn_radio_to_on_mtrl_015.png",
         "res/drawable-xhdpi-v4/abc_btn_switch_to_on_mtrl_00001.9.png",
         "res/drawable-xhdpi-v4/abc_btn_switch_to_on_mtrl_00012.9.png",
         "res/drawable-xhdpi-v4/abc_cab_background_top_mtrl_alpha.9.png",
         "res/drawable-xhdpi-v4/abc_ic_commit_search_api_mtrl_alpha.png",
         "res/drawable-xhdpi-v4/abc_ic_menu_copy_mtrl_am_alpha.png",
         "res/drawable-xhdpi-v4/abc_ic_menu_cut_mtrl_alpha.png",
         "res/drawable-xhdpi-v4/abc_ic_menu_paste_mtrl_am_alpha.png",
         "res/drawable-xhdpi-v4/abc_ic_menu_selectall_mtrl_alpha.png",
         "res/drawable-xhdpi-v4/abc_ic_menu_share_mtrl_alpha.png",
         "res/drawable-xhdpi-v4/abc_ic_star_black_16dp.png",
         "res/drawable-xhdpi-v4/abc_ic_star_black_36dp.png",
         "res/drawable-xhdpi-v4/abc_ic_star_black_48dp.png",
         "res/drawable-xhdpi-v4/abc_ic_star_half_black_16dp.png",
         "res/drawable-xhdpi-v4/abc_ic_star_half_black_36dp.png",
         "res/drawable-xhdpi-v4/abc_ic_star_half_black_48dp.png",
         "res/drawable-xhdpi-v4/abc_list_divider_mtrl_alpha.9.png",
         "res/drawable-xhdpi-v4/abc_list_focused_holo.9.png",
         "res/drawable-xhdpi-v4/abc_list_longpressed_holo.9.png",
         "res/drawable-xhdpi-v4/abc_list_pressed_holo_dark.9.png",
         "res/drawable-xhdpi-v4/abc_list_pressed_holo_light.9.png",
         "res/drawable-xhdpi-v4/abc_list_selector_disabled_holo_dark.9.png",
         "res/drawable-xhdpi-v4/abc_list_selector_disabled_holo_light.9.png",
         "res/drawable-xhdpi-v4/abc_menu_hardkey_panel_mtrl_mult.9.png",
         "res/drawable-xhdpi-v4/abc_popup_background_mtrl_mult.9.png",
         "res/drawable-xhdpi-v4/abc_scrubber_control_off_mtrl_alpha.png",
         "res/drawable-xhdpi-v4/abc_scrubber_control_to_pressed_mtrl_000.png",
         "res/drawable-xhdpi-v4/abc_scrubber_control_to_pressed_mtrl_005.png",
         "res/drawable-xhdpi-v4/abc_scrubber_primary_mtrl_alpha.9.png",
         "res/drawable-xhdpi-v4/abc_scrubber_track_mtrl_alpha.9.png",
         "res/drawable-xhdpi-v4/abc_spinner_mtrl_am_alpha.9.png",
         "res/drawable-xhdpi-v4/abc_switch_track_mtrl_alpha.9.png",
         "res/drawable-xhdpi-v4/abc_tab_indicator_mtrl_alpha.9.png",
         "res/drawable-xhdpi-v4/abc_text_select_handle_left_mtrl_dark.png",
         "res/drawable-xhdpi-v4/abc_text_select_handle_left_mtrl_light.png",
         "res/drawable-xhdpi-v4/abc_text_select_handle_middle_mtrl_dark.png",
         "res/drawable-xhdpi-v4/abc_text_select_handle_middle_mtrl_light.png",
         "res/drawable-xhdpi-v4/abc_text_select_handle_right_mtrl_dark.png",
         "res/drawable-xhdpi-v4/abc_text_select_handle_right_mtrl_light.png",
         "res/drawable-xhdpi-v4/abc_textfield_activated_mtrl_alpha.9.png",
         "res/drawable-xhdpi-v4/abc_textfield_default_mtrl_alpha.9.png",
         "res/drawable-xhdpi-v4/abc_textfield_search_activated_mtrl_alpha.9.png",
         "res/drawable-xhdpi-v4/abc_textfield_search_default_mtrl_alpha.9.png",
         "res/drawable-xhdpi-v4/ad_icon02.png",
         "res/drawable-xhdpi-v4/back.webp",
         "res/drawable-xhdpi-v4/button_check.png",
         "res/drawable-xhdpi-v4/button_check_on.png",
         "res/drawable-xhdpi-v4/button_no.png",
         "res/drawable-xhdpi-v4/button_no_on.png",
         "res/drawable-xhdpi-v4/button_off.png",
         "res/drawable-xhdpi-v4/button_off_on.png",
         "res/drawable-xhdpi-v4/button_return.png",
         "res/drawable-xhdpi-v4/button_return_on.png",
         "res/drawable-xhdpi-v4/button_yes.png",
         "res/drawable-xhdpi-v4/button_yes_on.png",
         "res/drawable-xhdpi-v4/common_full_open_on_phone.png",
         "res/drawable-xhdpi-v4/common_google_signin_btn_icon_dark_normal_background.9.png",
         "res/drawable-xhdpi-v4/common_google_signin_btn_icon_light_normal_background.9.png",
         "res/drawable-xhdpi-v4/common_google_signin_btn_text_dark_normal_background.9.png",
         "res/drawable-xhdpi-v4/common_google_signin_btn_text_light_normal_background.9.png",
         "res/drawable-xhdpi-v4/gift_default_icon.webp",
         "res/drawable-xhdpi-v4/googleg_disabled_color_18.png",
         "res/drawable-xhdpi-v4/googleg_standard_color_18.png",
         "res/drawable-xhdpi-v4/ic_app_name.webp",
         "res/drawable-xhdpi-v4/ic_splash_top.png",
         "res/drawable-xhdpi-v4/ic_visualizer_main_menu.png",
         "res/drawable-xhdpi-v4/icon_gift.png",
         "res/drawable-xhdpi-v4/icon_gift_1.png",
         "res/drawable-xhdpi-v4/icon_gift_10.png",
         "res/drawable-xhdpi-v4/icon_gift_11.png",
         "res/drawable-xhdpi-v4/icon_gift_12.png",
         "res/drawable-xhdpi-v4/icon_gift_13.png",
         "res/drawable-xhdpi-v4/icon_gift_14.png",
         "res/drawable-xhdpi-v4/icon_gift_15.png",
         "res/drawable-xhdpi-v4/icon_gift_16.png",
         "res/drawable-xhdpi-v4/icon_gift_17.png",
         "res/drawable-xhdpi-v4/icon_gift_18.png",
         "res/drawable-xhdpi-v4/icon_gift_19.png",
         "res/drawable-xhdpi-v4/icon_gift_2.png",
         "res/drawable-xhdpi-v4/icon_gift_20.png",
         "res/drawable-xhdpi-v4/icon_gift_3.png",
         "res/drawable-xhdpi-v4/icon_gift_4.png",
         "res/drawable-xhdpi-v4/icon_gift_5.png",
         "res/drawable-xhdpi-v4/icon_gift_6.png",
         "res/drawable-xhdpi-v4/icon_gift_7.png",
         "res/drawable-xhdpi-v4/icon_gift_8.png",
         "res/drawable-xhdpi-v4/icon_gift_9.png",
         "res/drawable-xhdpi-v4/icon_people.png",
         "res/drawable-xhdpi-v4/icon_star03.png",
         "res/drawable-xhdpi-v4/list02_bg.png",
         "res/drawable-xhdpi-v4/list03_bg.png",
         "res/drawable-xhdpi-v4/loading.png",
         "res/drawable-xhdpi-v4/new_icon.png",
         "res/drawable-xhdpi-v4/notification_bg_low_normal.9.png",
         "res/drawable-xhdpi-v4/notification_bg_low_pressed.9.png",
         "res/drawable-xhdpi-v4/notification_bg_normal.9.png",
         "res/drawable-xhdpi-v4/notification_bg_normal_pressed.9.png",
         "res/drawable-xhdpi-v4/notify_panel_notification_icon_bg.png",
         "res/drawable-xhdpi-v4/pop_up_button01.png",
         "res/drawable-xhdpi-v4/pop_up_button01_on.png",
         "res/drawable-xhdpi-v4/pop_up_button02.png",
         "res/drawable-xhdpi-v4/pop_up_button02_on.png",
         "res/drawable-xhdpi-v4/promotion_button01.png",
         "res/drawable-xhdpi-v4/promotion_button01_bg.png",
         "res/drawable-xhdpi-v4/promotion_button01_bg_on.png",
         "res/drawable-xhdpi-v4/promotion_button01_on.png",
         "res/drawable-xhdpi-v4/promotion_button02.png",
         "res/drawable-xhdpi-v4/promotion_button02_on.png",
         "res/drawable-xhdpi-v4/promotion_slide_menu_ad_img.png",
         "res/drawable-xhdpi-v4/recommend_ad_icon.png",
         "res/drawable-xhdpi-v4/remove_ads_button01.png",
         "res/drawable-xhdpi-v4/remove_ads_button01_off.png",
         "res/drawable-xhdpi-v4/remove_ads_button01_on.png",
         "res/drawable-xhdpi-v4/remove_ads_button03.png",
         "res/drawable-xhdpi-v4/remove_ads_icon01.png",
         "res/drawable-xhdpi-v4/remove_ads_icon02.png",
         "res/drawable-xhdpi-v4/remove_adsbutton02.png",
         "res/drawable-xhdpi-v4/remove_adsbutton02_on.png",
         "res/drawable-xhdpi-v4/score_button_radio.png",
         "res/drawable-xhdpi-v4/score_button_radio_on.png",
         "res/drawable-xhdpi-v4/score_button_star.png",
         "res/drawable-xhdpi-v4/score_button_star_on.png",
         "res/drawable-xhdpi-v4/side_i_icon05.png",
         "res/drawable-xhdpi-v4/sidebar_button08.png",
         "res/drawable-xhdpi-v4/sidebar_ic6_no_ad.png",
         "res/drawable-xhdpi-v4/unlock_theme_button01.png",
         "res/drawable-xhdpi-v4/unlock_theme_button01_on.png",
         "res/drawable-xhdpi-v4/unlock_theme_icon01.png",
         "res/drawable-xxhdpi-v4/abc_ab_share_pack_mtrl_alpha.9.png",
         "res/drawable-xxhdpi-v4/abc_btn_check_to_on_mtrl_000.png",
         "res/drawable-xxhdpi-v4/abc_btn_check_to_on_mtrl_015.png",
         "res/drawable-xxhdpi-v4/abc_btn_radio_to_on_mtrl_000.png",
         "res/drawable-xxhdpi-v4/abc_btn_radio_to_on_mtrl_015.png",
         "res/drawable-xxhdpi-v4/abc_btn_switch_to_on_mtrl_00001.9.png",
         "res/drawable-xxhdpi-v4/abc_btn_switch_to_on_mtrl_00012.9.png",
         "res/drawable-xxhdpi-v4/abc_cab_background_top_mtrl_alpha.9.png",
         "res/drawable-xxhdpi-v4/abc_ic_commit_search_api_mtrl_alpha.png",
         "res/drawable-xxhdpi-v4/abc_ic_menu_copy_mtrl_am_alpha.png",
         "res/drawable-xxhdpi-v4/abc_ic_menu_cut_mtrl_alpha.png",
         "res/drawable-xxhdpi-v4/abc_ic_menu_paste_mtrl_am_alpha.png",
         "res/drawable-xxhdpi-v4/abc_ic_menu_selectall_mtrl_alpha.png",
         "res/drawable-xxhdpi-v4/abc_ic_menu_share_mtrl_alpha.png",
         "res/drawable-xxhdpi-v4/abc_ic_star_black_16dp.png",
         "res/drawable-xxhdpi-v4/abc_ic_star_black_36dp.png",
         "res/drawable-xxhdpi-v4/abc_ic_star_black_48dp.png",
         "res/drawable-xxhdpi-v4/abc_ic_star_half_black_16dp.png",
         "res/drawable-xxhdpi-v4/abc_ic_star_half_black_36dp.png",
         "res/drawable-xxhdpi-v4/abc_ic_star_half_black_48dp.png",
         "res/drawable-xxhdpi-v4/abc_list_divider_mtrl_alpha.9.png",
         "res/drawable-xxhdpi-v4/abc_list_focused_holo.9.png",
         "res/drawable-xxhdpi-v4/abc_list_longpressed_holo.9.png",
         "res/drawable-xxhdpi-v4/abc_list_pressed_holo_dark.9.png",
         "res/drawable-xxhdpi-v4/abc_list_pressed_holo_light.9.png",
         "res/drawable-xxhdpi-v4/abc_list_selector_disabled_holo_dark.9.png",
         "res/drawable-xxhdpi-v4/abc_list_selector_disabled_holo_light.9.png",
         "res/drawable-xxhdpi-v4/abc_menu_hardkey_panel_mtrl_mult.9.png",
         "res/drawable-xxhdpi-v4/abc_popup_background_mtrl_mult.9.png",
         "res/drawable-xxhdpi-v4/abc_scrubber_control_off_mtrl_alpha.png",
         "res/drawable-xxhdpi-v4/abc_scrubber_control_to_pressed_mtrl_000.png",
         "res/drawable-xxhdpi-v4/abc_scrubber_control_to_pressed_mtrl_005.png",
         "res/drawable-xxhdpi-v4/abc_scrubber_primary_mtrl_alpha.9.png",
         "res/drawable-xxhdpi-v4/abc_scrubber_track_mtrl_alpha.9.png",
         "res/drawable-xxhdpi-v4/abc_spinner_mtrl_am_alpha.9.png",
         "res/drawable-xxhdpi-v4/abc_switch_track_mtrl_alpha.9.png",
         "res/drawable-xxhdpi-v4/abc_tab_indicator_mtrl_alpha.9.png",
         "res/drawable-xxhdpi-v4/abc_text_select_handle_left_mtrl_dark.png",
         "res/drawable-xxhdpi-v4/abc_text_select_handle_left_mtrl_light.png",
         "res/drawable-xxhdpi-v4/abc_text_select_handle_middle_mtrl_dark.png",
         "res/drawable-xxhdpi-v4/abc_text_select_handle_middle_mtrl_light.png",
         "res/drawable-xxhdpi-v4/abc_text_select_handle_right_mtrl_dark.png",
         "res/drawable-xxhdpi-v4/abc_text_select_handle_right_mtrl_light.png",
         "res/drawable-xxhdpi-v4/abc_textfield_activated_mtrl_alpha.9.png",
         "res/drawable-xxhdpi-v4/abc_textfield_default_mtrl_alpha.9.png",
         "res/drawable-xxhdpi-v4/abc_textfield_search_activated_mtrl_alpha.9.png",
         "res/drawable-xxhdpi-v4/abc_textfield_search_default_mtrl_alpha.9.png",
         "res/drawable-xxhdpi-v4/common_google_signin_btn_icon_dark_normal_background.9.png",
         "res/drawable-xxhdpi-v4/common_google_signin_btn_icon_light_normal_background.9.png",
         "res/drawable-xxhdpi-v4/common_google_signin_btn_text_dark_normal_background.9.png",
         "res/drawable-xxhdpi-v4/common_google_signin_btn_text_light_normal_background.9.png",
         "res/drawable-xxhdpi-v4/googleg_disabled_color_18.png",
         "res/drawable-xxhdpi-v4/googleg_standard_color_18.png",
         "res/drawable-xxhdpi-v4/ic_visualizer_main_menu.png",
         "res/drawable-xxxhdpi-v4/abc_btn_check_to_on_mtrl_000.png",
         "res/drawable-xxxhdpi-v4/abc_btn_check_to_on_mtrl_015.png",
         "res/drawable-xxxhdpi-v4/abc_btn_radio_to_on_mtrl_000.png",
         "res/drawable-xxxhdpi-v4/abc_btn_radio_to_on_mtrl_015.png",
         "res/drawable-xxxhdpi-v4/abc_btn_switch_to_on_mtrl_00001.9.png",
         "res/drawable-xxxhdpi-v4/abc_btn_switch_to_on_mtrl_00012.9.png",
         "res/drawable-xxxhdpi-v4/abc_ic_menu_copy_mtrl_am_alpha.png",
         "res/drawable-xxxhdpi-v4/abc_ic_menu_cut_mtrl_alpha.png",
         "res/drawable-xxxhdpi-v4/abc_ic_menu_paste_mtrl_am_alpha.png",
         "res/drawable-xxxhdpi-v4/abc_ic_menu_selectall_mtrl_alpha.png",
         "res/drawable-xxxhdpi-v4/abc_ic_menu_share_mtrl_alpha.png",
         "res/drawable-xxxhdpi-v4/abc_ic_star_black_16dp.png",
         "res/drawable-xxxhdpi-v4/abc_ic_star_black_36dp.png",
         "res/drawable-xxxhdpi-v4/abc_ic_star_black_48dp.png",
         "res/drawable-xxxhdpi-v4/abc_ic_star_half_black_16dp.png",
         "res/drawable-xxxhdpi-v4/abc_ic_star_half_black_36dp.png",
         "res/drawable-xxxhdpi-v4/abc_ic_star_half_black_48dp.png",
         "res/drawable-xxxhdpi-v4/abc_scrubber_control_to_pressed_mtrl_000.png",
         "res/drawable-xxxhdpi-v4/abc_scrubber_control_to_pressed_mtrl_005.png",
         "res/drawable-xxxhdpi-v4/abc_spinner_mtrl_am_alpha.9.png",
         "res/drawable-xxxhdpi-v4/abc_switch_track_mtrl_alpha.9.png",
         "res/drawable-xxxhdpi-v4/abc_tab_indicator_mtrl_alpha.9.png",
         "res/drawable-xxxhdpi-v4/abc_text_select_handle_left_mtrl_dark.png",
         "res/drawable-xxxhdpi-v4/abc_text_select_handle_left_mtrl_light.png",
         "res/drawable-xxxhdpi-v4/abc_text_select_handle_right_mtrl_dark.png",
         "res/drawable-xxxhdpi-v4/abc_text_select_handle_right_mtrl_light.png",
         "res/drawable-xxxhdpi-v4/ic_visualizer_main_menu.png",
         "res/drawable/abc_btn_borderless_material.xml",
         "res/drawable/abc_btn_check_material.xml",
         "res/drawable/abc_btn_colored_material.xml",
         "res/drawable/abc_btn_default_mtrl_shape.xml",
         "res/drawable/abc_btn_radio_material.xml",
         "res/drawable/abc_cab_background_internal_bg.xml",
         "res/drawable/abc_cab_background_top_material.xml",
         "res/drawable/abc_dialog_material_background.xml",
         "res/drawable/abc_edit_text_material.xml",
         "res/drawable/abc_ic_ab_back_material.xml",
         "res/drawable/abc_ic_arrow_drop_right_black_24dp.xml",
         "res/drawable/abc_ic_clear_material.xml",
         "res/drawable/abc_ic_go_search_api_material.xml",
         "res/drawable/abc_ic_menu_overflow_material.xml",
         "res/drawable/abc_ic_search_api_material.xml",
         "res/drawable/abc_ic_voice_search_api_material.xml",
         "res/drawable/abc_item_background_holo_dark.xml",
         "res/drawable/abc_item_background_holo_light.xml",
         "res/drawable/abc_list_selector_background_transition_holo_dark.xml",
         "res/drawable/abc_list_selector_background_transition_holo_light.xml",
         "res/drawable/abc_list_selector_holo_dark.xml",
         "res/drawable/abc_list_selector_holo_light.xml",
         "res/drawable/abc_ratingbar_indicator_material.xml",
         "res/drawable/abc_ratingbar_material.xml",
         "res/drawable/abc_ratingbar_small_material.xml",
         "res/drawable/abc_seekbar_thumb_material.xml",
         "res/drawable/abc_seekbar_tick_mark_material.xml",
         "res/drawable/abc_seekbar_track_material.xml",
         "res/drawable/abc_spinner_textfield_background_material.xml",
         "res/drawable/abc_switch_thumb_material.xml",
         "res/drawable/abc_tab_indicator_material.xml",
         "res/drawable/abc_text_cursor_material.xml",
         "res/drawable/abc_textfield_search_material.xml",
         "res/drawable/abc_vector_test.xml",
         "res/drawable/ad_action_bg_shape.xml",
         "res/drawable/back_button_selector.xml",
         "res/drawable/big_ad_shape.xml",
         "res/drawable/button_close_ad.xml",
         "res/drawable/button_close_intersitialad.xml",
         "res/drawable/button_ok_intersitialad.xml",
         "res/drawable/common_google_signin_btn_icon_dark.xml",
         "res/drawable/common_google_signin_btn_icon_dark_focused.xml",
         "res/drawable/common_google_signin_btn_icon_dark_normal.xml",
         "res/drawable/common_google_signin_btn_icon_disabled.xml",
         "res/drawable/common_google_signin_btn_icon_light.xml",
         "res/drawable/common_google_signin_btn_icon_light_focused.xml",
         "res/drawable/common_google_signin_btn_icon_light_normal.xml",
         "res/drawable/common_google_signin_btn_text_dark.xml",
         "res/drawable/common_google_signin_btn_text_dark_focused.xml",
         "res/drawable/common_google_signin_btn_text_dark_normal.xml",
         "res/drawable/common_google_signin_btn_text_disabled.xml",
         "res/drawable/common_google_signin_btn_text_light.xml",
         "res/drawable/common_google_signin_btn_text_light_focused.xml",
         "res/drawable/common_google_signin_btn_text_light_normal.xml",
         "res/drawable/corner_bg.xml",
         "res/drawable/dialog_background.xml",
         "res/drawable/download_button.xml",
         "res/drawable/drawable_splash_bg.xml",
         "res/drawable/drawable_splash_dialog_start_button.xml",
         "res/drawable/exit_text_selecter.xml",
         "res/drawable/exitdlg_button_close.xml",
         "res/drawable/exitdlg_button_no.xml",
         "res/drawable/exitdlg_button_yes.xml",
         "res/drawable/go.xml",
         "res/drawable/gobal_line.xml",
         "res/drawable/listview_arrow.png",
         "res/drawable/loading_bg.xml",
         "res/drawable/newcount_bg.xml",
         "res/drawable/newcount_bg_little.xml",
         "res/drawable/notification_bar_exit_selector.xml",
         "res/drawable/notification_bg.xml",
         "res/drawable/notification_bg_low.xml",
         "res/drawable/notification_icon_background.xml",
         "res/drawable/notification_tile_bg.xml",
         "res/drawable/press_bg.xml",
         "res/drawable/rate_bg.xml",
         "res/drawable/remove_adsbutton01_selector.xml",
         "res/drawable/remove_adsbutton02_selector.xml",
         "res/drawable/text_color.xml",
         "res/drawable/text_selecter.xml",
         "res/drawable/text_selector.xml",
         "res/drawable/tips_bg.xml",
         "res/drawable/tooltip_frame_dark.xml",
         "res/drawable/tooltip_frame_light.xml",
         "res/drawable/top_recomand_bg.xml",
         "res/drawable/unlock_adsbutton01_selector.xml",
         "res/drawable/update_button_cacel.xml",
         "res/drawable/update_button_ok.xml",
         "res/layout-land/interstitialad_layout.xml",
         "res/layout-v16/notification_template_custom_big.xml",
         "res/layout-v21/abc_screen_toolbar.xml",
         "res/layout-v21/activity_gift.xml",
         "res/layout-v21/grid_view_gift_item.xml",
         "res/layout-v21/notification_action.xml",
         "res/layout-v21/notification_action_tombstone.xml",
         "res/layout-v21/notification_template_custom_big.xml",
         "res/layout-v21/notification_template_icon_group.xml",
         "res/layout-v21/z_loading_dialog.xml",
         "res/layout-v22/abc_alert_dialog_button_bar_material.xml",
         "res/layout-v26/abc_screen_toolbar.xml",
         "res/layout/abc_action_bar_title_item.xml",
         "res/layout/abc_action_bar_up_container.xml",
         "res/layout/abc_action_bar_view_list_nav_layout.xml",
         "res/layout/abc_action_menu_item_layout.xml",
         "res/layout/abc_action_menu_layout.xml",
         "res/layout/abc_action_mode_bar.xml",
         "res/layout/abc_action_mode_close_item_material.xml",
         "res/layout/abc_activity_chooser_view.xml",
         "res/layout/abc_activity_chooser_view_list_item.xml",
         "res/layout/abc_alert_dialog_button_bar_material.xml",
         "res/layout/abc_alert_dialog_material.xml",
         "res/layout/abc_alert_dialog_title_material.xml",
         "res/layout/abc_dialog_title_material.xml",
         "res/layout/abc_expanded_menu_layout.xml",
         "res/layout/abc_list_menu_item_checkbox.xml",
         "res/layout/abc_list_menu_item_icon.xml",
         "res/layout/abc_list_menu_item_layout.xml",
         "res/layout/abc_list_menu_item_radio.xml",
         "res/layout/abc_popup_menu_header_item_layout.xml",
         "res/layout/abc_popup_menu_item_layout.xml",
         "res/layout/abc_screen_content_include.xml",
         "res/layout/abc_screen_simple.xml",
         "res/layout/abc_screen_simple_overlay_action_mode.xml",
         "res/layout/abc_screen_toolbar.xml",
         "res/layout/abc_search_dropdown_item_icons_2line.xml",
         "res/layout/abc_search_view.xml",
         "res/layout/abc_select_dialog_material.xml",
         "res/layout/activity_gift.xml",
         "res/layout/activity_main.xml",
         "res/layout/activity_privacy.xml",
         "res/layout/activity_splash.xml",
         "res/layout/ad_big_content.xml",
         "res/layout/ad_content.xml",
         "res/layout/ad_cover_content.xml",
         "res/layout/color_window_layout.xml",
         "res/layout/custom_promotion_icon_layout.xml",
         "res/layout/dialog_edit.xml",
         "res/layout/dialog_save.xml",
         "res/layout/eqlist_item.xml",
         "res/layout/eqlist_window.xml",
         "res/layout/exit_rate_layout.xml",
         "res/layout/flash_layout.xml",
         "res/layout/grid_view_gift_item.xml",
         "res/layout/interstitialad_layout.xml",
         "res/layout/item_color.xml",
         "res/layout/layout_splash_dialog.xml",
         "res/layout/layout_splash_fullscreen.xml",
         "res/layout/loading_dialog.xml",
         "res/layout/main_content.xml",
         "res/layout/main_content_land.xml",
         "res/layout/main_menu.xml",
         "res/layout/notification_action.xml",
         "res/layout/notification_action_tombstone.xml",
         "res/layout/notification_media_action.xml",
         "res/layout/notification_media_cancel_action.xml",
         "res/layout/notification_template_big_media.xml",
         "res/layout/notification_template_big_media_custom.xml",
         "res/layout/notification_template_big_media_narrow.xml",
         "res/layout/notification_template_big_media_narrow_custom.xml",
         "res/layout/notification_template_icon_group.xml",
         "res/layout/notification_template_lines_media.xml",
         "res/layout/notification_template_media.xml",
         "res/layout/notification_template_media_custom.xml",
         "res/layout/notification_template_part_chronometer.xml",
         "res/layout/notification_template_part_time.xml",
         "res/layout/notify_layout.xml",
         "res/layout/play_icon_layout.xml",
         "res/layout/promotion_icon_layout.xml",
         "res/layout/rate_layout.xml",
         "res/layout/remove_ads.xml",
         "res/layout/select_dialog_item_material.xml",
         "res/layout/select_dialog_multichoice_material.xml",
         "res/layout/select_dialog_singlechoice_material.xml",
         "res/layout/show_exit.xml",
         "res/layout/start_dialog_layout.xml",
         "res/layout/support_simple_spinner_dropdown_item.xml",
         "res/layout/tooltip.xml",
         "res/layout/unlock_ads.xml",
         "res/layout/view_equalizer.xml",
         "res/layout/widget_preset_item.xml",
         "res/layout/widget_presets_list.xml",
         "res/layout/widget_switch.xml",
         "res/layout/widget_switch_visual.xml",
         "res/layout/z_loading_dialog.xml",
         "res/mipmap-hdpi-v4/logo.png",
         "res/mipmap-hdpi-v4/logo2.png",
         "res/mipmap-xhdpi-v4/bass_progress_bar_bg_dot_turn_off.png",
         "res/mipmap-xhdpi-v4/bass_progress_bar_bg_empty.png",
         "res/mipmap-xhdpi-v4/bass_progress_bar_bg_turn_off.png",
         "res/mipmap-xhdpi-v4/bass_progress_bar_bg_turn_off_equalizer.png",
         "res/mipmap-xhdpi-v4/eq_ic_l_hall.png",
         "res/mipmap-xhdpi-v4/eq_ic_l_room.png",
         "res/mipmap-xhdpi-v4/eq_ic_m_hall.png",
         "res/mipmap-xhdpi-v4/eq_ic_m_room.png",
         "res/mipmap-xhdpi-v4/eq_ic_plate.png",
         "res/mipmap-xhdpi-v4/eq_ic_s_room.png",
         "res/mipmap-xhdpi-v4/eq_progress_bar_bg.png",
         "res/mipmap-xhdpi-v4/home_bg10_1.png",
         "res/mipmap-xhdpi-v4/home_bg10_2.png",
         "res/mipmap-xhdpi-v4/home_bg11_1.png",
         "res/mipmap-xhdpi-v4/home_bg11_2.png",
         "res/mipmap-xhdpi-v4/home_bg12_1.png",
         "res/mipmap-xhdpi-v4/home_bg12_2.png",
         "res/mipmap-xhdpi-v4/home_bg13_1.png",
         "res/mipmap-xhdpi-v4/home_bg13_2.png",
         "res/mipmap-xhdpi-v4/home_bg14_1.png",
         "res/mipmap-xhdpi-v4/home_bg14_2.png",
         "res/mipmap-xhdpi-v4/home_bg15_1.png",
         "res/mipmap-xhdpi-v4/home_bg15_2.png",
         "res/mipmap-xhdpi-v4/home_bg16_1.png",
         "res/mipmap-xhdpi-v4/home_bg16_2.png",
         "res/mipmap-xhdpi-v4/home_bg17_eurhythmics.png",
         "res/mipmap-xhdpi-v4/home_bg1_1.png",
         "res/mipmap-xhdpi-v4/home_bg1_2.png",
         "res/mipmap-xhdpi-v4/home_bg2_1.png",
         "res/mipmap-xhdpi-v4/home_bg2_2.png",
         "res/mipmap-xhdpi-v4/home_bg3_1.png",
         "res/mipmap-xhdpi-v4/home_bg3_2.png",
         "res/mipmap-xhdpi-v4/home_bg4_1.png",
         "res/mipmap-xhdpi-v4/home_bg4_2.png",
         "res/mipmap-xhdpi-v4/home_bg5_1.png",
         "res/mipmap-xhdpi-v4/home_bg5_2.png",
         "res/mipmap-xhdpi-v4/home_bg6_1.png",
         "res/mipmap-xhdpi-v4/home_bg6_2.png",
         "res/mipmap-xhdpi-v4/home_bg7_1.png",
         "res/mipmap-xhdpi-v4/home_bg7_2.png",
         "res/mipmap-xhdpi-v4/home_bg8_1.png",
         "res/mipmap-xhdpi-v4/home_bg8_2.png",
         "res/mipmap-xhdpi-v4/home_bg9_1.png",
         "res/mipmap-xhdpi-v4/home_bg9_2.png",
         "res/mipmap-xhdpi-v4/home_button1.png",
         "res/mipmap-xhdpi-v4/home_button10_1.png",
         "res/mipmap-xhdpi-v4/home_button10_1_on.png",
         "res/mipmap-xhdpi-v4/home_button10_2.png",
         "res/mipmap-xhdpi-v4/home_button10_2_on.png",
         "res/mipmap-xhdpi-v4/home_button10_open.png",
         "res/mipmap-xhdpi-v4/home_button11_1.png",
         "res/mipmap-xhdpi-v4/home_button11_1_on.png",
         "res/mipmap-xhdpi-v4/home_button11_2.png",
         "res/mipmap-xhdpi-v4/home_button11_2_on.png",
         "res/mipmap-xhdpi-v4/home_button11_open.png",
         "res/mipmap-xhdpi-v4/home_button12_1.png",
         "res/mipmap-xhdpi-v4/home_button12_1_on.png",
         "res/mipmap-xhdpi-v4/home_button12_2.png",
         "res/mipmap-xhdpi-v4/home_button12_2_on.png",
         "res/mipmap-xhdpi-v4/home_button12_open.png",
         "res/mipmap-xhdpi-v4/home_button13_1.png",
         "res/mipmap-xhdpi-v4/home_button13_1_on.png",
         "res/mipmap-xhdpi-v4/home_button13_2.png",
         "res/mipmap-xhdpi-v4/home_button13_2_on.png",
         "res/mipmap-xhdpi-v4/home_button13_open.png",
         "res/mipmap-xhdpi-v4/home_button14_1.png",
         "res/mipmap-xhdpi-v4/home_button14_1_on.png",
         "res/mipmap-xhdpi-v4/home_button14_2.png",
         "res/mipmap-xhdpi-v4/home_button14_2_on.png",
         "res/mipmap-xhdpi-v4/home_button14_open.png",
         "res/mipmap-xhdpi-v4/home_button15_1.png",
         "res/mipmap-xhdpi-v4/home_button15_1_on.png",
         "res/mipmap-xhdpi-v4/home_button15_2.png",
         "res/mipmap-xhdpi-v4/home_button15_2_on.png",
         "res/mipmap-xhdpi-v4/home_button15_open.png",
         "res/mipmap-xhdpi-v4/home_button16_1.png",
         "res/mipmap-xhdpi-v4/home_button16_1_on.png",
         "res/mipmap-xhdpi-v4/home_button16_2.png",
         "res/mipmap-xhdpi-v4/home_button16_2_on.png",
         "res/mipmap-xhdpi-v4/home_button16_open.png",
         "res/mipmap-xhdpi-v4/home_button1_2.png",
         "res/mipmap-xhdpi-v4/home_button1_2_on.png",
         "res/mipmap-xhdpi-v4/home_button1_on.png",
         "res/mipmap-xhdpi-v4/home_button1_open.png",
         "res/mipmap-xhdpi-v4/home_button2_1.png",
         "res/mipmap-xhdpi-v4/home_button2_1_on.png",
         "res/mipmap-xhdpi-v4/home_button2_2.png",
         "res/mipmap-xhdpi-v4/home_button2_2_on.png",
         "res/mipmap-xhdpi-v4/home_button2_open.png",
         "res/mipmap-xhdpi-v4/home_button3_1.png",
         "res/mipmap-xhdpi-v4/home_button3_1_on.png",
         "res/mipmap-xhdpi-v4/home_button3_2.png",
         "res/mipmap-xhdpi-v4/home_button3_2_on.png",
         "res/mipmap-xhdpi-v4/home_button3_open.png",
         "res/mipmap-xhdpi-v4/home_button4_1.png",
         "res/mipmap-xhdpi-v4/home_button4_1_on.png",
         "res/mipmap-xhdpi-v4/home_button4_2.png",
         "res/mipmap-xhdpi-v4/home_button4_2_on.png",
         "res/mipmap-xhdpi-v4/home_button4_open.png",
         "res/mipmap-xhdpi-v4/home_button5_1.png",
         "res/mipmap-xhdpi-v4/home_button5_1_on.png",
         "res/mipmap-xhdpi-v4/home_button5_2.png",
         "res/mipmap-xhdpi-v4/home_button5_2_on.png",
         "res/mipmap-xhdpi-v4/home_button5_open.png",
         "res/mipmap-xhdpi-v4/home_button6_1.png",
         "res/mipmap-xhdpi-v4/home_button6_1_on.png",
         "res/mipmap-xhdpi-v4/home_button6_2.png",
         "res/mipmap-xhdpi-v4/home_button6_2_on.png",
         "res/mipmap-xhdpi-v4/home_button6_open.png",
         "res/mipmap-xhdpi-v4/home_button7_1.png",
         "res/mipmap-xhdpi-v4/home_button7_1_on.png",
         "res/mipmap-xhdpi-v4/home_button7_2.png",
         "res/mipmap-xhdpi-v4/home_button7_2_on.png",
         "res/mipmap-xhdpi-v4/home_button7_open.png",
         "res/mipmap-xhdpi-v4/home_button8.png",
         "res/mipmap-xhdpi-v4/home_button8_1.png",
         "res/mipmap-xhdpi-v4/home_button8_1_on.png",
         "res/mipmap-xhdpi-v4/home_button8_2.png",
         "res/mipmap-xhdpi-v4/home_button8_2_on.png",
         "res/mipmap-xhdpi-v4/home_button8_open.png",
         "res/mipmap-xhdpi-v4/home_button9_1.png",
         "res/mipmap-xhdpi-v4/home_button9_1_on.png",
         "res/mipmap-xhdpi-v4/home_button9_2.png",
         "res/mipmap-xhdpi-v4/home_button9_2_on.png",
         "res/mipmap-xhdpi-v4/home_button9_open.png",
         "res/mipmap-xhdpi-v4/home_button_no.png",
         "res/mipmap-xhdpi-v4/home_icon1.png",
         "res/mipmap-xhdpi-v4/home_icon10_folk.png",
         "res/mipmap-xhdpi-v4/home_icon11_heavy_metal.png",
         "res/mipmap-xhdpi-v4/home_icon12_hip_hop.png",
         "res/mipmap-xhdpi-v4/home_icon13_jazz.png",
         "res/mipmap-xhdpi-v4/home_icon14_pop.png",
         "res/mipmap-xhdpi-v4/home_icon15_rock.png",
         "res/mipmap-xhdpi-v4/home_icon17_normal.png",
         "res/mipmap-xhdpi-v4/home_icon2.png",
         "res/mipmap-xhdpi-v4/home_icon3.png",
         "res/mipmap-xhdpi-v4/home_icon5.png",
         "res/mipmap-xhdpi-v4/home_icon6.png",
         "res/mipmap-xhdpi-v4/home_icon7_classical.png",
         "res/mipmap-xhdpi-v4/home_icon8_dance.png",
         "res/mipmap-xhdpi-v4/home_icon9_flat.png",
         "res/mipmap-xhdpi-v4/icon_plug_in_bg1.png",
         "res/mipmap-xhdpi-v4/icon_plug_in_bg1_close.png",
         "res/mipmap-xhdpi-v4/icon_plug_in_bg1_open.png",
         "res/mipmap-xhdpi-v4/icon_plug_in_bg1_vertical_bar1.png",
         "res/mipmap-xhdpi-v4/icon_plug_in_bg1_vertical_bar2.png",
         "res/mipmap-xhdpi-v4/icon_plug_in_bg1_vertical_bar3.png",
         "res/mipmap-xhdpi-v4/icon_plug_in_bg1_vertical_bar4.png",
         "res/mipmap-xhdpi-v4/icon_plug_in_bg1_vertical_bar5.png",
         "res/mipmap-xhdpi-v4/icon_plug_in_bg2_line.png",
         "res/mipmap-xhdpi-v4/icon_select.png",
         "res/mipmap-xhdpi-v4/logo.png",
         "res/mipmap-xhdpi-v4/logo2.png",
         "res/mipmap-xhdpi-v4/notification_bar_icon_close_exit.png",
         "res/mipmap-xhdpi-v4/notification_bar_icon_close_exit_on.png",
         "res/mipmap-xhdpi-v4/sidebar_bg.png",
         "res/mipmap-xhdpi-v4/sidebar_bg_2.png",
         "res/mipmap-xhdpi-v4/sidebar_icon_color.png",
         "res/mipmap-xhdpi-v4/sidebar_icon_no_ad.png",
         "res/mipmap-xhdpi-v4/widget1.png",
         "res/mipmap-xhdpi-v4/widget2.png",
         "res/mipmap-xhdpi-v4/widget3.png",
         "res/mipmap-xhdpi-v4/widget3_bg1.png",
         "res/mipmap-xxhdpi-v4/logo.png",
         "res/mipmap-xxhdpi-v4/logo2.png",
         "res/xml/widget_preset_list.xml",
         "res/xml/widget_switch.xml",
         "res/xml/widget_switch_visual.xml",
         "resources.arsc",
         "META-INF/BASSBOOS.SF",
         "META-INF/BASSBOOS.RSA",
         "META-INF/MANIFEST.MF"
      ]
   },
   "general": {
      "apk_name": "Bass Booster",
      "file_size": 2676698,
      "minimun_sdk_version": "17",
      "package_name": "audio.sound.effect.bass.virtrualizer.equalizer",
      "sha256": "d3d8aac6a8442a5ec9c343cc21cac100eafbccbd205959c810514e8bc4ba2558",
      "version_code": "17"
   },
   "gplaydata": {
      "category": "Music & Audio",
      "content_rating": "0",
      "developer_name": "Coocent",
      "downloads": "5000000+",
      "exists": true,
      "name": "BassBooster&Equalizer",
      "rating_count": "102,723",
      "score": "4.6"
   },
   "methods": [
      "<clinit>",
      "<init>",
      "<init>",
      "getAppContext",
      "interface10",
      "interface11",
      "interface12",
      "interface5",
      "interface6",
      "interface7",
      "interface8",
      "load",
      "mark",
      "mark",
      "mark",
      "attachBaseContext",
      "<init>",
      "showDialog",
      "<init>",
      "run",
      "<init>",
      "onClick",
      "<init>",
      "asBinder",
      "onTransact",
      "setRemote",
      "<clinit>",
      "<init>",
      "create",
      "init",
      "<clinit>",
      "<init>",
      "getAppContext",
      "getDir",
      "getOrigApplicationContext",
      "getSoPath1",
      "getSoPath2",
      "interface11",
      "interface12",
      "interface13",
      "interface5",
      "interface6",
      "interface7",
      "interface8",
      "isX86Arch",
      "mark",
      "mark",
      "mark",
      "n0103",
      "n01030",
      "n01031",
      "n010310",
      "n010320",
      "n01033",
      "n010333",
      "n0110",
      "n0111",
      "n01110",
      "n01111",
      "n011111",
      "n0111111",
      "n01111111",
      "n011111111",
      "n0111111113",
      "n01111113",
      "n011113",
      "n0111133",
      "n011121",
      "n011123130",
      "n01113",
      "n011130",
      "n011131",
      "n0111313",
      "n0111323",
      "n011133",
      "n0111330",
      "n011133113",
      "n0111333",
      "n01113330",
      "n0112",
      "n01121",
      "n011211",
      "n011212",
      "n01122",
      "n011221",
      "n0112222",
      "n01123",
      "n0113",
      "n01130",
      "n01131",
      "n011310",
      "n011311",
      "n0113110",
      "n0113111",
      "n01131110",
      "n01131111",
      "n011311110",
      "n011311111",
      "n01131111111110",
      "n01131111130",
      "n011311113",
      "n01131113",
      "n011311133",
      "n0113112",
      "n0113113",
      "n01131130",
      "n01131131",
      "n011311330",
      "n011312",
      "n0113120",
      "n0113121",
      "n011312230",
      "n011313",
      "n0113130",
      "n0113131",
      "n01131310",
      "n011313110",
      "n011313133",
      "n0113133",
      "n01131333",
      "n011313330",
      "n01132",
      "n011320",
      "n01132222222220",
      "n011323",
      "n01133",
      "n011330",
      "n011331",
      "n0113310",
      "n0113311",
      "n01133110",
      "n01133111",
      "n011331110",
      "n011331111",
      "n01133111110",
      "n01133112",
      "n01133113",
      "n011331130",
      "n011331131",
      "n0113311310",
      "n01133113333333",
      "n0113312",
      "n0113313",
      "n01133130",
      "n011331310",
      "n011331313",
      "n011331330",
      "n011331333",
      "n011332",
      "n0113320",
      "n0113322",
      "n01133220",
      "n0113323",
      "n01133233",
      "n011333",
      "n0113330",
      "n0113331",
      "n01133310",
      "n01133311",
      "n011333110",
      "n011333111",
      "n0113331110",
      "n0113331111",
      "n0113331113",
      "n011333113",
      "n0113331133",
      "n01133313",
      "n011333130",
      "n011333133",
      "n0113333",
      "n01133330",
      "n01133331",
      "n011333311",
      "n011333313",
      "n0113333130",
      "n01133331310",
      "n0113333133",
      "n01133333",
      "n011333330",
      "n0113333311",
      "n01133333111",
      "n0113333313",
      "n01133333133",
      "n011333333",
      "n0113333330",
      "n01133333311",
      "n011333333110",
      "n011333333113",
      "n01133333330",
      "n011333333330",
      "n011333333333",
      "n01133333333333",
      "n0113333333333333",
      "\u1d62\u02cb",
      "\u1d62\u02cb",
      "\u1d62\u02cb",
      "\u1d62\u02cb",
      "attachBaseContext",
      "n1100",
      "n1101",
      "n11010",
      "n110110",
      "n11013",
      "n1103",
      "n11030",
      "n1103110",
      "n110320",
      "n11033",
      "n110330",
      "n1110",
      "n1111",
      "n11110",
      "n11111",
      "n111110",
      "n111111",
      "n1111110",
      "n1111111",
      "n11111110",
      "n11111111",
      "n111111110",
      "n111111111",
      "n1111111110",
      "n11111111110",
      "n1111111111111",
      "n111111111113131130",
      "n1111111113",
      "n11111111130",
      "n1111111130",
      "n11111113",
      "n111111131",
      "n1111111311",
      "n1111111313",
      "n1111113",
      "n11111130",
      "n11111133",
      "n11111133111133311111111121113130",
      "n111111333131",
      "n1111113333330",
      "n1111120",
      "n1111123",
      "n111113",
      "n1111130",
      "n1111131",
      "n11111310",
      "n1111131111",
      "n11111311110",
      "n111113131330",
      "n1111133",
      "n11111330",
      "n11111331",
      "n111113311",
      "n11112",
      "n111120",
      "n1111221",
      "n111122121323230",
      "n111123",
      "n1111231311133333333310",
      "n11113",
      "n111130",
      "n111131",
      "n1111310",
      "n1111311",
      "n11113110",
      "n11113130",
      "n111131330",
      "n111133",
      "n1111330",
      "n1111331",
      "n11113310",
      "n11113311",
      "n111133110",
      "n1111331113330",
      "n11113311133330",
      "n111133120",
      "n111133130",
      "n1111333",
      "n11113330",
      "n11113331321232132313311111333113331313313331130",
      "n11113333",
      "n111133330",
      "n111133331330",
      "n1111333333233330",
      "n111133333333333133111132333332311111133113331333313330",
      "n1112",
      "n11120",
      "n11121",
      "n11121113331313110",
      "n1112113",
      "n11122",
      "n111222",
      "n1112220",
      "n111223",
      "n1112230",
      "n11123",
      "n111230",
      "n1112310",
      "n111233",
      "n1112330",
      "n1113",
      "n11130",
      "n11131",
      "n111310",
      "n111311",
      "n1113110",
      "n1113111",
      "n11131110",
      "n11131111",
      "n111311110",
      "n111311111",
      "n1113111110",
      "n11131111131110",
      "n1113111130",
      "n1113111131",
      "n11131111310",
      "n11131113",
      "n111311130",
      "n11131121",
      "n1113113",
      "n11131130",
      "n11131131",
      "n111311310",
      "n11131133",
      "n111311330",
      "n1113113313110",
      "n111311333110",
      "n111312130",
      "n1113123",
      "n111313",
      "n1113130",
      "n1113131",
      "n11131310",
      "n11131311",
      "n1113131110",
      "n11131311130",
      "n111313130",
      "n1113133",
      "n11131330",
      "n11131331110",
      "n1113133113310",
      "n11131333",
      "n11131333133330",
      "n11131333330",
      "n1113133333130",
      "n11132",
      "n111320",
      "n111321",
      "n1113210",
      "n1113212",
      "n1113220",
      "n111322210",
      "n1113223",
      "n111323",
      "n1113231",
      "n111323330",
      "n11132333310",
      "n11132333313211311210",
      "n11133",
      "n111330",
      "n111331",
      "n1113310",
      "n1113311",
      "n11133110",
      "n11133111",
      "n111331110",
      "n111331111",
      "n1113311110",
      "n1113311111",
      "n111331113",
      "n11133113",
      "n111331130",
      "n111331131",
      "n11133113110",
      "n1113311330",
      "n1113311333",
      "n11133113333330",
      "n11133113333333",
      "n11133120",
      "n1113313",
      "n11133130",
      "n11133131",
      "n111331310",
      "n111331313",
      "n1113313130",
      "n11133133",
      "n111331330",
      "n1113313310",
      "n111331333",
      "n1113313330",
      "n11133133330",
      "n1113320",
      "n1113321",
      "n11133210",
      "n11133220",
      "n1113322230",
      "n1113323",
      "n111333",
      "n1113330",
      "n1113331",
      "n11133310",
      "n11133311",
      "n111333110",
      "n111333111",
      "n1113331110",
      "n1113331130",
      "n111333113333330",
      "n11133313",
      "n111333130",
      "n111333131",
      "n111333133",
      "n1113331330",
      "n111333133123133333232223333331333330",
      "n111333133330",
      "n11133320",
      "n111333210",
      "n1113333",
      "n11133330",
      "n11133331",
      "n111333310",
      "n1113333110",
      "n1113333111110",
      "n111333311113",
      "n1113333113",
      "n11133331130",
      "n11133331132210",
      "n11133331132230",
      "n1113333122330",
      "n111333313",
      "n1113333130",
      "n11133331320",
      "n1113333133",
      "n111333313330",
      "n1113333133330",
      "n111333320",
      "n11133332110",
      "n11133333",
      "n111333330",
      "n111333331",
      "n111333331110",
      "n1113333311330",
      "n11133333113330",
      "n11133333130",
      "n1113333321232132313311111311333131331333110",
      "n11133333212321323311111311333131331333110",
      "n1113333323333330",
      "n111333333",
      "n1113333330",
      "n111333333130",
      "n1113333331331133330",
      "n11133333313331110",
      "n11133333313331111113133311331333310",
      "n111333333133311111131333113313333310",
      "n111333333133311111131333113313333331321110",
      "n11133333313331111113133313330",
      "n111333333133311111131333133310",
      "n111333333133311111313313330",
      "n1113333333",
      "n11133333330",
      "n111333333313330",
      "n111333333320",
      "n111333333330",
      "n111333333331133330",
      "n11133333333310",
      "n11133333333330",
      "n111333333333310",
      "n111333333333311310",
      "n111333333333330",
      "n11133333333333133311113233332311111133113331333313330",
      "n111333333333333311113233333111111331133313133330",
      "n111333333333333330",
      "n1113333333333333330",
      "n1113333333333333333330",
      "onCreate"
   ],
   "permissions": {
      "aosp": [
         "android.permission.VIBRATE",
         "android.permission.MODIFY_AUDIO_SETTINGS",
         "android.permission.ACCESS_NETWORK_STATE",
         "android.permission.INTERNET"
      ],
      "declared": [],
      "names": [
         "android.permission.VIBRATE",
         "android.permission.MODIFY_AUDIO_SETTINGS",
         "android.permission.ACCESS_NETWORK_STATE",
         "android.permission.INTERNET"
      ],
      "third_party": []
   },
   "providers": {
      "names": []
   },
   "receivers": {
      "names": [
         {
            "intent_filters": {
               "action": [
                  "android.appwidget.action.APPWIDGET_UPDATE"
               ]
            },
            "name": "net.coocent.eq.bassbooster.widget.SwitchWidget"
         },
         {
            "intent_filters": {
               "action": [
                  "android.appwidget.action.APPWIDGET_UPDATE"
               ]
            },
            "name": "net.coocent.eq.bassbooster.widget.SwitchWidgetVisual"
         },
         {
            "intent_filters": {
               "action": [
                  "android.appwidget.action.APPWIDGET_UPDATE"
               ]
            },
            "name": "net.coocent.eq.bassbooster.widget.PresetsWidget"
         }
      ]
   },
   "services": {
      "names": [
         {
            "intent_filters": {},
            "name": "net.coocent.eq.bassbooster.service.EQService"
         },
         {
            "intent_filters": {},
            "name": "net.coocent.eq.bassbooster.service.DaemonActiviteService"
         },
         {
            "intent_filters": {},
            "name": "net.coocent.eq.bassbooster.service.UpdateService"
         }
      ]
   },
   "specials": {
      "good_developer": false
   },
   "strings": [
      "(",
      ")",
      ".so",
      "/",
      "/.jiagu",
      "/system/build.prop",
      "64",
      "<",
      "<clinit>",
      "<init>",
      ">;",
      "C",
      "CPU_ABI",
      "CPU_ABI2",
      "D",
      "DESCRIPTOR",
      "ENABLE_CRASH_REPORT",
      "ENABLE_PT",
      "F",
      "FFFFF",
      "FJ",
      "FLLLIF",
      "Failed to call attachBaseContext.",
      "I",
      "IFFLIII",
      "IIIII",
      "IIIIIZ",
      "IIIILLLIL",
      "IIIZZZ",
      "IIJ",
      "IIZ",
      "IJ",
      "IJI",
      "IL",
      "ILII",
      "ILIIII",
      "ILIIIIL",
      "ILIIIZ",
      "ILIJ",
      "ILILI",
      "ILLIIL",
      "ILLLI",
      "ILLLL",
      "ILLLLLZ",
      "ILLLLLZZ",
      "ILLZ",
      "J",
      "JI",
      "JIJJJIIJ",
      "JJ",
      "JJI",
      "JJJ",
      "JJJJ",
      "JL",
      "JLI",
      "JLII",
      "JLJI",
      "JLL",
      "JLLJ",
      "JLLZ",
      "JLLZI",
      "L",
      "LI",
      "LIIIILI",
      "LIIIIZZ",
      "LIIIL",
      "LIIL",
      "LIIZI",
      "LIIZZ",
      "LIJ",
      "LIL",
      "LILF",
      "LILJ",
      "LILL",
      "LILLII",
      "LILLL",
      "LIZ",
      "LIZI",
      "LIZJ",
      "LIZZZZZ",
      "LJ",
      "LJIZ",
      "LJJ",
      "LJL",
      "LL",
      "LLDD",
      "LLFF",
      "LLFFFF",
      "LLI",
      "LLIIIL",
      "LLIIZ",
      "LLIJ",
      "LLIL",
      "LLILIL",
      "LLILL",
      "LLIZI",
      "LLIZL",
      "LLJ",
      "LLL",
      "LLLI",
      "LLLII",
      "LLLIII",
      "LLLIL",
      "LLLILI",
      "LLLILL",
      "LLLIZLL",
      "LLLJ",
      "LLLJL",
      "LLLL",
      "LLLLII",
      "LLLLIII",
      "LLLLIIL",
      "LLLLIL",
      "LLLLL",
      "LLLLLI",
      "LLLLLII",
      "LLLLLIL",
      "LLLLLL",
      "LLLLLLFL",
      "LLLLLLI",
      "LLLLLLL",
      "LLLLLLLIF",
      "LLLLLLLLL",
      "LLLLLLLLLLL",
      "LLLLLLLLLLLLL",
      "LLLLLZ",
      "LLLLLZZZZ",
      "LLLLZ",
      "LLLLZL",
      "LLLZF",
      "LLLZLL",
      "LLLZZLLLLLL",
      "LLZ",
      "LLZL",
      "LLZZ",
      "LZ",
      "LZZ",
      "Landroid/app/AlertDialog$Builder;",
      "Landroid/app/AlertDialog;",
      "Landroid/app/Application;",
      "Landroid/content/Context;",
      "Landroid/content/DialogInterface$OnClickListener;",
      "Landroid/content/DialogInterface;",
      "Landroid/content/res/AssetManager;",
      "Landroid/content/res/Resources;",
      "Landroid/location/Location;",
      "Landroid/location/LocationManager;",
      "Landroid/os/Binder;",
      "Landroid/os/Build$VERSION;",
      "Landroid/os/Build;",
      "Landroid/os/IBinder;",
      "Landroid/os/IInterface;",
      "Landroid/os/Looper;",
      "Landroid/os/Parcel;",
      "Landroid/view/Window;",
      "Lcom/qihoo/util/Configuration;",
      "Lcom/qihoo/util/LiteApplication;",
      "Lcom/qihoo/util/QHDialog;",
      "Lcom/qihoo/util/\u1d62\u02cb;",
      "Lcom/qihoo/util/\u1d62\u02ce;",
      "Lcom/qihoo360/replugin/Entry$Stub;",
      "Lcom/qihoo360/replugin/Entry;",
      "Lcom/stub/StubApp;",
      "Ldalvik/annotation/Signature;",
      "Ldalvik/system/DexFile;",
      "Ljava/io/BufferedInputStream;",
      "Ljava/io/File;",
      "Ljava/io/FileInputStream;",
      "Ljava/io/FileNotFoundException;",
      "Ljava/io/FileOutputStream;",
      "Ljava/io/IOException;",
      "Ljava/io/InputStream;",
      "Ljava/io/RandomAccessFile;",
      "Ljava/lang/Boolean;",
      "Ljava/lang/CharSequence;",
      "Ljava/lang/Class;",
      "Ljava/lang/ClassLoader;",
      "Ljava/lang/Exception;",
      "Ljava/lang/InterruptedException;",
      "Ljava/lang/NoSuchFieldError;",
      "Ljava/lang/Object;",
      "Ljava/lang/Process;",
      "Ljava/lang/Runnable;",
      "Ljava/lang/Runtime;",
      "Ljava/lang/RuntimeException;",
      "Ljava/lang/String;",
      "Ljava/lang/StringBuilder;",
      "Ljava/lang/System;",
      "Ljava/lang/Thread;",
      "Ljava/lang/Throwable;",
      "Ljava/lang/reflect/Method;",
      "Ljava/util/Enumeration",
      "Ljava/util/Enumeration;",
      "SDK_INT",
      "SUPPORTED_32_BIT_ABIS",
      "SourceFile",
      "V",
      "VI",
      "VIFF",
      "VII",
      "VIIIIFI",
      "VIIIIIII",
      "VIIIIIIIILILIIL",
      "VIIIIIZL",
      "VIIILLLLLL",
      "VIIJ",
      "VIIL",
      "VIILZ",
      "VIIZL",
      "VIIZZ",
      "VIIZZZ",
      "VIJ",
      "VIJJFJILJLJL",
      "VIJLIL",
      "VIJLILZIZLLLLLLLLLZ",
      "VIL",
      "VILFF",
      "VILI",
      "VILIL",
      "VILILL",
      "VILL",
      "VILLI",
      "VILLIL",
      "VILLL",
      "VILLLILJZJLJILJLZLLZZZZZLLLZZLLLZLZLLZLLLZZL",
      "VILLLL",
      "VILLLLLLJLLLL",
      "VILLLLLLLLLLLILLZIIFLJLLLLLJLFZIIZZLLZILLLZLLLLZLLL",
      "VILLZJ",
      "VILLZZ",
      "VILLZZZLLL",
      "VILLZZZLLLL",
      "VIZIZIL",
      "VIZZLLZZZZLLLIIIIIIFIIDZZILZL",
      "VJ",
      "VJDD",
      "VJJL",
      "VJL",
      "VJLI",
      "VJLL",
      "VJZZILLLZLZLFZ",
      "VL",
      "VLDDDDDDDDD",
      "VLDDDI",
      "VLFFFFFFFZZ",
      "VLFII",
      "VLFZ",
      "VLI",
      "VLII",
      "VLIII",
      "VLIIII",
      "VLIIIII",
      "VLIIIIL",
      "VLIIIILI",
      "VLIIL",
      "VLIILI",
      "VLIILL",
      "VLIILLLZI",
      "VLIILLZLZI",
      "VLIIZIILZZZ",
      "VLIIZL",
      "VLIIZZ",
      "VLIJ",
      "VLIJJL",
      "VLIL",
      "VLILIII",
      "VLILIIIL",
      "VLILIL",
      "VLILIZ",
      "VLILL",
      "VLILLL",
      "VLILLLLL",
      "VLILLLZLLLL",
      "VLILLZILLZ",
      "VLILLZIZ",
      "VLILZ",
      "VLIZ",
      "VLIZZZZL",
      "VLJ",
      "VLJJ",
      "VLJLLL",
      "VLJLLLLZ",
      "VLJLLLLZLJIILIIJZ",
      "VLJZ",
      "VLL",
      "VLLCCL",
      "VLLII",
      "VLLIIIII",
      "VLLIIL",
      "VLLIILI",
      "VLLIILL",
      "VLLIIZ",
      "VLLIJ",
      "VLLIL",
      "VLLILIL",
      "VLLILL",
      "VLLILLL",
      "VLLJ",
      "VLLJI",
      "VLLJJ",
      "VLLJJJL",
      "VLLL",
      "VLLLI",
      "VLLLIIL",
      "VLLLIIZ",
      "VLLLIL",
      "VLLLILLIJLZLLLLLJLJJJLLLLLLZLLLLL",
      "VLLLILLLL",
      "VLLLJ",
      "VLLLJI",
      "VLLLL",
      "VLLLLIIIIZ",
      "VLLLLIIL",
      "VLLLLIJJLL",
      "VLLLLIL",
      "VLLLLILJ",
      "VLLLLILLL",
      "VLLLLJ",
      "VLLLLJII",
      "VLLLLL",
      "VLLLLLDLLLLLL",
      "VLLLLLIIZ",
      "VLLLLLJZJLJILJLLZZZZZLZZLLLZLZLLZLLLZZ",
      "VLLLLLJZJLJILJLZLLZZZZZLZZLLLZLZLLZLLLZZ",
      "VLLLLLL",
      "VLLLLLLILLLIIZ",
      "VLLLLLLILLLIIZZILZLLZLLL",
      "VLLLLLLILLLIIZZZILZLLLIILLZLLLLI",
      "VLLLLLLILLLIIZZZILZLLLIILLZLLLLLI",
      "VLLLLLLILLLIIZZZILZLLLIILLZLLLLLLILJZZI",
      "VLLLLLLILLLIIZZZILZLLLZLLL",
      "VLLLLLLILLLIIZZZILZLLLZLLLI",
      "VLLLLLLL",
      "VLLLLLLLJ",
      "VLLLLLLLL",
      "VLLLLLLLLLL",
      "VLLLLLLLLLLIILZ",
      "VLLLLLLLLLLL",
      "VLLLLLLLLLLLILLLZIIFLJLLLLJLFZIIZZLLZILLLZLLLLZLLL",
      "VLLLLLLLLLLLLLL",
      "VLLLLLLLLLLLLLLL",
      "VLLLLLLLLLLLLLLLLLL",
      "VLLLLLLLLLLLLLZIIFLJLLLLLFZIIZZLLZILLLZLZLLLL",
      "VLLLLLLLLLLZ",
      "VLLLLLLLLLZ",
      "VLLLLLLLLZZLLLL",
      "VLLLLLLLZLLL",
      "VLLLLLLZL",
      "VLLLLLLZLLIILLLL",
      "VLLLLLLZZ",
      "VLLLLLZILL",
      "VLLLLLZILLL",
      "VLLLLLZL",
      "VLLLLZ",
      "VLLLLZL",
      "VLLLLZLLLL",
      "VLLLLZLZ",
      "VLLLLZZ",
      "VLLLLZZLJJI",
      "VLLLLZZLJJL",
      "VLLLZL",
      "VLLLZLL",
      "VLLLZZ",
      "VLLLZZLLLLLL",
      "VLLZ",
      "VLLZLI",
      "VLLZLL",
      "VLLZLLI",
      "VLLZLLLL",
      "VLLZLZ",
      "VLLZZ",
      "VLLZZLLLLLL",
      "VLLZZLZZ",
      "VLLZZZ",
      "VLLZZZZ",
      "VLZ",
      "VLZDZL",
      "VLZLLLLLZL",
      "VLZZLL",
      "VZ",
      "VZILL",
      "VZL",
      "VZLL",
      "VZLLLLZLL",
      "VZZLZFIZ",
      "VZZLZLZLL",
      "X86Bridge",
      "Z",
      "ZI",
      "ZII",
      "ZIII",
      "ZIIIIIIIIZ",
      "ZIIIIL",
      "ZIIIILI",
      "ZIIL",
      "ZIILL",
      "ZIILLI",
      "ZIJJ",
      "ZIL",
      "ZILI",
      "ZILL",
      "ZILLI",
      "ZJJ",
      "ZL",
      "ZLFFF",
      "ZLFFZ",
      "ZLI",
      "ZLIIJ",
      "ZLIIL",
      "ZLIL",
      "ZLJ",
      "ZLJL",
      "ZLL",
      "ZLLFF",
      "ZLLFFZ",
      "ZLLI",
      "ZLLII",
      "ZLLIIZ",
      "ZLLIL",
      "ZLLJ",
      "ZLLL",
      "ZLLLII",
      "ZLLLIII",
      "ZLLLIL",
      "ZLLLL",
      "ZLLLLI",
      "ZLLLLL",
      "ZLLLLLLZ",
      "ZLLLZ",
      "ZLLZZZZ",
      "ZLZ",
      "ZLZZL",
      "ZZ",
      "[B",
      "[Ljava/lang/Class;",
      "[Ljava/lang/Object;",
      "[Ljava/lang/String;",
      "_64.so",
      "_a64.so",
      "_mips.so",
      "_x64.so",
      "_x86.so",
      "append",
      "asBinder",
      "attach",
      "attachBaseContext",
      "attachInterface",
      "available",
      "booleanValue",
      "chmod 755 ",
      "cl",
      "close",
      "com.qihoo.bugreport.CrashReport",
      "com.qihoo.dexjiagu.TransitMgr",
      "com.qihoo.jiagutracker.TrackerMain",
      "com.qihoo360.crypt.entryRunApplication",
      "com.qihoo360.loader2.IPlugin",
      "com.qihoo360.replugin.Entry_Jiagu",
      "com.stub.adsdk.rpa.util.RpaActivityTracker",
      "contains",
      "context",
      "create",
      "currentThread",
      "exec",
      "exists",
      "exit",
      "fakeBinder",
      "forName",
      "getAbsolutePath",
      "getAppContext",
      "getApplicationContext",
      "getAssets",
      "getBaseContext",
      "getCanonicalPath",
      "getClassLoader",
      "getDeclaredMethod",
      "getDir",
      "getFilesDir",
      "getMethod",
      "getOrigApplicationContext",
      "getParentFile",
      "getResources",
      "getRuntime",
      "getSoPath1",
      "getSoPath2",
      "getWindow",
      "hashCode",
      "init",
      "initAssetForNative",
      "interface10",
      "interface11",
      "interface12",
      "interface13",
      "interface5",
      "interface6",
      "interface7",
      "interface8",
      "invoke",
      "isX86Arch",
      "jiagu",
      "jiagu_x86",
      "libjiagu",
      "load",
      "loadClass",
      "loadFromLib",
      "loadLibrary",
      "loop",
      "mRemote",
      "manager",
      "mark",
      "mips",
      "mkdir",
      "n0103",
      "n01030",
      "n01031",
      "n010310",
      "n010320",
      "n01033",
      "n010333",
      "n0110",
      "n0111",
      "n01110",
      "n01111",
      "n011111",
      "n0111111",
      "n01111111",
      "n011111111",
      "n0111111113",
      "n01111113",
      "n011113",
      "n0111133",
      "n011121",
      "n011123130",
      "n01113",
      "n011130",
      "n011131",
      "n0111313",
      "n0111323",
      "n011133",
      "n0111330",
      "n011133113",
      "n0111333",
      "n01113330",
      "n0112",
      "n01121",
      "n011211",
      "n011212",
      "n01122",
      "n011221",
      "n0112222",
      "n01123",
      "n0113",
      "n01130",
      "n01131",
      "n011310",
      "n011311",
      "n0113110",
      "n0113111",
      "n01131110",
      "n01131111",
      "n011311110",
      "n011311111",
      "n01131111111110",
      "n01131111130",
      "n011311113",
      "n01131113",
      "n011311133",
      "n0113112",
      "n0113113",
      "n01131130",
      "n01131131",
      "n011311330",
      "n011312",
      "n0113120",
      "n0113121",
      "n011312230",
      "n011313",
      "n0113130",
      "n0113131",
      "n01131310",
      "n011313110",
      "n011313133",
      "n0113133",
      "n01131333",
      "n011313330",
      "n01132",
      "n011320",
      "n01132222222220",
      "n011323",
      "n01133",
      "n011330",
      "n011331",
      "n0113310",
      "n0113311",
      "n01133110",
      "n01133111",
      "n011331110",
      "n011331111",
      "n01133111110",
      "n01133112",
      "n01133113",
      "n011331130",
      "n011331131",
      "n0113311310",
      "n01133113333333",
      "n0113312",
      "n0113313",
      "n01133130",
      "n011331310",
      "n011331313",
      "n011331330",
      "n011331333",
      "n011332",
      "n0113320",
      "n0113322",
      "n01133220",
      "n0113323",
      "n01133233",
      "n011333",
      "n0113330",
      "n0113331",
      "n01133310",
      "n01133311",
      "n011333110",
      "n011333111",
      "n0113331110",
      "n0113331111",
      "n0113331113",
      "n011333113",
      "n0113331133",
      "n01133313",
      "n011333130",
      "n011333133",
      "n0113333",
      "n01133330",
      "n01133331",
      "n011333311",
      "n011333313",
      "n0113333130",
      "n01133331310",
      "n0113333133",
      "n01133333",
      "n011333330",
      "n0113333311",
      "n01133333111",
      "n0113333313",
      "n01133333133",
      "n011333333",
      "n0113333330",
      "n01133333311",
      "n011333333110",
      "n011333333113",
      "n01133333330",
      "n011333333330",
      "n011333333333",
      "n01133333333333",
      "n0113333333333333",
      "n1100",
      "n1101",
      "n11010",
      "n110110",
      "n11013",
      "n1103",
      "n11030",
      "n1103110",
      "n110320",
      "n11033",
      "n110330",
      "n1110",
      "n1111",
      "n11110",
      "n11111",
      "n111110",
      "n111111",
      "n1111110",
      "n1111111",
      "n11111110",
      "n11111111",
      "n111111110",
      "n111111111",
      "n1111111110",
      "n11111111110",
      "n1111111111111",
      "n111111111113131130",
      "n1111111113",
      "n11111111130",
      "n1111111130",
      "n11111113",
      "n111111131",
      "n1111111311",
      "n1111111313",
      "n1111113",
      "n11111130",
      "n11111133",
      "n11111133111133311111111121113130",
      "n111111333131",
      "n1111113333330",
      "n1111120",
      "n1111123",
      "n111113",
      "n1111130",
      "n1111131",
      "n11111310",
      "n1111131111",
      "n11111311110",
      "n111113131330",
      "n1111133",
      "n11111330",
      "n11111331",
      "n111113311",
      "n11112",
      "n111120",
      "n1111221",
      "n111122121323230",
      "n111123",
      "n1111231311133333333310",
      "n11113",
      "n111130",
      "n111131",
      "n1111310",
      "n1111311",
      "n11113110",
      "n11113130",
      "n111131330",
      "n111133",
      "n1111330",
      "n1111331",
      "n11113310",
      "n11113311",
      "n111133110",
      "n1111331113330",
      "n11113311133330",
      "n111133120",
      "n111133130",
      "n1111333",
      "n11113330",
      "n11113331321232132313311111333113331313313331130",
      "n11113333",
      "n111133330",
      "n111133331330",
      "n1111333333233330",
      "n111133333333333133111132333332311111133113331333313330",
      "n1112",
      "n11120",
      "n11121",
      "n11121113331313110",
      "n1112113",
      "n11122",
      "n111222",
      "n1112220",
      "n111223",
      "n1112230",
      "n11123",
      "n111230",
      "n1112310",
      "n111233",
      "n1112330",
      "n1113",
      "n11130",
      "n11131",
      "n111310",
      "n111311",
      "n1113110",
      "n1113111",
      "n11131110",
      "n11131111",
      "n111311110",
      "n111311111",
      "n1113111110",
      "n11131111131110",
      "n1113111130",
      "n1113111131",
      "n11131111310",
      "n11131113",
      "n111311130",
      "n11131121",
      "n1113113",
      "n11131130",
      "n11131131",
      "n111311310",
      "n11131133",
      "n111311330",
      "n1113113313110",
      "n111311333110",
      "n111312130",
      "n1113123",
      "n111313",
      "n1113130",
      "n1113131",
      "n11131310",
      "n11131311",
      "n1113131110",
      "n11131311130",
      "n111313130",
      "n1113133",
      "n11131330",
      "n11131331110",
      "n1113133113310",
      "n11131333",
      "n11131333133330",
      "n11131333330",
      "n1113133333130",
      "n11132",
      "n111320",
      "n111321",
      "n1113210",
      "n1113212",
      "n1113220",
      "n111322210",
      "n1113223",
      "n111323",
      "n1113231",
      "n111323330",
      "n11132333310",
      "n11132333313211311210",
      "n11133",
      "n111330",
      "n111331",
      "n1113310",
      "n1113311",
      "n11133110",
      "n11133111",
      "n111331110",
      "n111331111",
      "n1113311110",
      "n1113311111",
      "n111331113",
      "n11133113",
      "n111331130",
      "n111331131",
      "n11133113110",
      "n1113311330",
      "n1113311333",
      "n11133113333330",
      "n11133113333333",
      "n11133120",
      "n1113313",
      "n11133130",
      "n11133131",
      "n111331310",
      "n111331313",
      "n1113313130",
      "n11133133",
      "n111331330",
      "n1113313310",
      "n111331333",
      "n1113313330",
      "n11133133330",
      "n1113320",
      "n1113321",
      "n11133210",
      "n11133220",
      "n1113322230",
      "n1113323",
      "n111333",
      "n1113330",
      "n1113331",
      "n11133310",
      "n11133311",
      "n111333110",
      "n111333111",
      "n1113331110",
      "n1113331130",
      "n111333113333330",
      "n11133313",
      "n111333130",
      "n111333131",
      "n111333133",
      "n1113331330",
      "n111333133123133333232223333331333330",
      "n111333133330",
      "n11133320",
      "n111333210",
      "n1113333",
      "n11133330",
      "n11133331",
      "n111333310",
      "n1113333110",
      "n1113333111110",
      "n111333311113",
      "n1113333113",
      "n11133331130",
      "n11133331132210",
      "n11133331132230",
      "n1113333122330",
      "n111333313",
      "n1113333130",
      "n11133331320",
      "n1113333133",
      "n111333313330",
      "n1113333133330",
      "n111333320",
      "n11133332110",
      "n11133333",
      "n111333330",
      "n111333331",
      "n111333331110",
      "n1113333311330",
      "n11133333113330",
      "n11133333130",
      "n1113333321232132313311111311333131331333110",
      "n11133333212321323311111311333131331333110",
      "n1113333323333330",
      "n111333333",
      "n1113333330",
      "n111333333130",
      "n1113333331331133330",
      "n11133333313331110",
      "n11133333313331111113133311331333310",
      "n111333333133311111131333113313333310",
      "n111333333133311111131333113313333331321110",
      "n11133333313331111113133313330",
      "n111333333133311111131333133310",
      "n111333333133311111313313330",
      "n1113333333",
      "n11133333330",
      "n111333333313330",
      "n111333333320",
      "n111333333330",
      "n111333333331133330",
      "n11133333333310",
      "n11133333333330",
      "n111333333333310",
      "n111333333333311310",
      "n111333333333330",
      "n11133333333333133311113233332311111133113331333313330",
      "n111333333333333311113233333111111331133313133330",
      "n111333333333333330",
      "n1113333333333333330",
      "n1113333333333333333330",
      "needX86Bridge",
      "newInstance",
      "notify",
      "onClick",
      "onCreate",
      "onTransact",
      "open",
      "prepare",
      "prepareInit",
      "r",
      "read",
      "readLine",
      "realEntryBinder",
      "register",
      "ro.product.cpu.abi",
      "run",
      "separator",
      "setAccessible",
      "setCancelable",
      "setMessage",
      "setPositiveButton",
      "setRemote",
      "setType",
      "show",
      "showDialog",
      "sleep",
      "start",
      "strEntryApplication",
      "toString",
      "transact",
      "value",
      "valueOf",
      "wait",
      "write",
      "x86",
      "\u1d62\u02cb",
      "\u1d62\u02ce",
      "\u1d62\u02cf",
      "\u1d62\u02d1",
      "\u1d62\u05d9",
      "\u1d62\u0640",
      "\u1d62\u0674",
      "\u1d62\u1427",
      "\u1d62\u1d35",
      "\u786e\u5b9a"
   ]
}