{
  "project_info": {
    "project_number": "329033847638",
    "firebase_url": "https://fcsecurity-b0a1b.firebaseio.com",
    "project_id": "fcsecurity-b0a1b",
    "storage_bucket": "fcsecurity-b0a1b.appspot.com"
  },
  "client": [
    {
      "client_info": {
        "mobilesdk_app_id": "1:329033847638:android:9dca587c7029a612",
        "android_client_info": {
          "package_name": "com.funnycat.fcsecurity"
        }
      },
      "oauth_client": [
        {
          "client_id": "329033847638-qklllngcuj722r7t56bdv57g3j6nejdo.apps.googleusercontent.com",
          "client_type": 3
        }
      ],
      "api_key": [
        {
          "current_key": "AIzaSyB37zPSzH9QrFP_bZUqhFUBO06BMEW--BY"
        }
      ],
      "services": {
        "analytics_service": {
          "status": 1
        },
        "appinvite_service": {
          "status": 1,
          "other_platform_oauth_client": []
        },
        "ads_service": {
          "status": 2
        }
      }
    }
  ],
  "configuration_version": "1"
}